Place,Name,Sex,Event,Division,WeightClassKg,Equipment,BirthYear,Team,State,BodyweightKg,Squat1Kg,Squat2Kg,Squat3Kg,Best3SquatKg,Bench1Kg,Bench2Kg,Bench3Kg,Best3BenchKg,Deadlift1Kg,Deadlift2Kg,Deadlift3Kg,Best3DeadliftKg,TotalKg
G,Holly Necaise,F,SBD,F-G,72,Single-ply,2000,,LA,67.4,-150,-150,150,150,77.5,85,-87.5,85,122.5,137.5,142.5,142.5,377.5
1,Anaya Davids,F,SBD,F-JV,47,Single-ply,2003,Neenah High School,WI,46.1,72.5,80,-87.5,80,30,32.5,35,35,72.5,80,87.5,87.5,202.5
1,Ally Spang,F,SBD,F-JV,52,Single-ply,2002,,WI,51.6,95,100,105,105,47.5,52.5,57.5,57.5,112.5,117.5,125,125,287.5
2,Katherine Bilac,F,SBD,F-JV,52,Single-ply,2002,,LA,51.9,-102.5,102.5,-107.5,102.5,-47.5,52.5,-57.5,52.5,102.5,115,120,120,275
3,Natalie Weckesser,F,SBD,F-JV,52,Single-ply,2001,Necedah High School,WI,51.8,102.5,105,110,110,37.5,40,42.5,42.5,105,110,-115,110,262.5
4,Alyssa Morehouse,F,SBD,F-JV,52,Single-ply,2002,Woodward Academy,IA,51.4,90,100,105,105,40,45,50,50,87.5,102.5,-115,102.5,257.5
1,Yalena Raya-Mora,F,SBD,F-JV,57,Single-ply,2003,,WI,54.4,100,107.5,115,115,52.5,57.5,-62.5,57.5,100,107.5,115,115,287.5
2,Riley Ganther,F,SBD,F-JV,57,Single-ply,2001,Necedah High School,WI,56.5,105,112.5,-120,112.5,37.5,42.5,45,45,112.5,120,-132.5,120,277.5
3,Brooke Appe,F,SBD,F-JV,57,Single-ply,2001,,LA,54.6,97.5,105,-110,105,42.5,45,47.5,47.5,97.5,107.5,-117.5,107.5,260
4,Naomi Harper,F,SBD,F-JV,57,Single-ply,2002,Hershey High School,PA,55.2,85,-112.5,-112.5,85,45,-50,-50,45,97.5,107.5,112.5,112.5,242.5
5,Maddison Battani,F,SBD,F-JV,57,Single-ply,2002,Woodward Academy,IA,52.9,85,95,-110,95,42.5,-47.5,-47.5,42.5,87.5,97.5,-105,97.5,235
1,Machaela Exner,F,SBD,F-JV,63,Single-ply,2001,Necedah High School,WI,61.4,145,155,165,165,70,75,82.5,82.5,142.5,152.5,162.5,162.5,410
2,Kayelyn Hadley,F,SBD,F-JV,63,Single-ply,2002,Necedah High School,WI,61.7,115,122.5,130,130,47.5,52.5,-57.5,52.5,105,115,122.5,122.5,305
3,Jasmine Popp,F,SBD,F-JV,63,Single-ply,2002,Necedah High School,WI,62.3,125,130,137.5,137.5,50,55,-60,55,107.5,112.5,-117.5,112.5,305
4,Haleigh Calaway,F,SBD,F-JV,63,Single-ply,2002,Neenah High School,WI,59.3,-102.5,107.5,115,115,42.5,47.5,-52.5,47.5,105,112.5,117.5,117.5,280
5,Melanie Johnson,F,SBD,F-JV,63,Single-ply,2001,Neenah High School,WI,60.5,95,102.5,105,105,42.5,-47.5,-47.5,42.5,105,-112.5,-115,105,252.5
1,Anna Renner,F,SBD,F-JV,72,Single-ply,2003,Necedah High School,WI,65.2,132.5,140,147.5,147.5,-47.5,47.5,52.5,52.5,120,127.5,132.5,132.5,332.5
2,Amanda Nickolai,F,SBD,F-JV,72,Single-ply,2002,Neenah High School,WI,69.6,115,-127.5,-135,115,50,57.5,62.5,62.5,120,130,132.5,132.5,310
3,Hailey De Guire,F,SBD,F-JV,72,Single-ply,2002,Necedah High School,WI,67.1,125,-130,132.5,132.5,52.5,57.5,60,60,107.5,112.5,115,115,307.5
4,Makaiah Baumgart,F,SBD,F-JV,72,Single-ply,2003,Woodward Academy,IA,68,-110,110,125,125,52.5,60,-65,60,105,117.5,-125,117.5,302.5
5,Cheyenne Polack,F,SBD,F-JV,72,Single-ply,2002,Necedah High School,WI,65.2,105,110,115,115,47.5,52.5,55,55,110,117.5,122.5,122.5,292.5
6,Alissa Saunders,F,SBD,F-JV,72,Single-ply,2003,Necedah High School,WI,71.8,112.5,-117.5,-117.5,112.5,50,55,-60,55,112.5,120,-127.5,120,287.5
7,Mikayla Hovorka,F,SBD,F-JV,72,Single-ply,2002,,WI,69.6,107.5,-115,-120,107.5,55,57.5,-60,57.5,77.5,87.5,97.5,97.5,262.5
1,Madelynn Mcfarland,F,SBD,F-JV,84,Single-ply,2001,,WI,81.9,157.5,-165,170,170,65,-70,-70,65,137.5,147.5,155,155,390
2,Makenzie Exner,F,SBD,F-JV,84,Single-ply,2002,Necedah High School,WI,82.9,-142.5,-142.5,142.5,142.5,47.5,50,-55,50,142.5,150,-157.5,150,342.5
3,Delilah Burgos,F,SBD,F-JV,84,Single-ply,2002,Cudahy High School,WI,78.1,102.5,112.5,-127.5,112.5,50,-55,-55,50,125,-130,-130,125,287.5
4,Amariasia Diggs,F,SBD,F-JV,84,Single-ply,2004,Woodward Academy,IA,80.7,92.5,102.5,112.5,112.5,55,-65,-65,55,95,110,-122.5,110,277.5
5,Mia Castagnetta,F,SBD,F-JV,84,Single-ply,2000,,LA,74.8,95,-100,-100,95,45,-52.5,52.5,52.5,95,100,105,105,252.5
1,Victoria Gorski,F,SBD,F-JV,84+,Single-ply,2001,Cudahy High School,WI,87.2,137.5,145,150,150,-62.5,62.5,67.5,67.5,142.5,150,162.5,162.5,380
2,Miah Slaton,F,SBD,F-JV,84+,Single-ply,2003,Necedah High School,WI,123.6,160,170,182.5,182.5,60,70,-72.5,70,105,112.5,127.5,127.5,380
3,Abby Fayard,F,SBD,F-JV,84+,Single-ply,2003,,LA,94.8,110,120,135,135,60,67.5,80,80,112.5,122.5,135,135,350
1,Grace Albarez,F,SBD,F-V,47,Single-ply,1999,Covington High school,LA,44.7,120,130,132.5,132.5,62.5,67.5,72.5,72.5,105,112.5,115,115,320
2,Delaney Ortiz,F,SBD,F-V,47,Single-ply,2000,Neenah High School,WI,46.7,107.5,-115,-115,107.5,47.5,52.5,-55,52.5,112.5,-117.5,-117.5,112.5,272.5
3,Kaylee Putman,F,SBD,F-V,47,Single-ply,1999,,LA,46,85,-92.5,-92.5,85,57.5,-60,60,60,102.5,-115,-115,102.5,247.5
4,Noelle Ladwig,F,SBD,F-V,47,Single-ply,2000,Necedah High School,WI,46.2,92.5,100,-107.5,100,35,37.5,42.5,42.5,87.5,97.5,105,105,247.5
5,Rose Huynh,F,SBD,F-V,47,Single-ply,2000,Abbeville,LA,46.9,80,87.5,92.5,92.5,35,-37.5,-37.5,35,77.5,85,90,90,217.5
6,Cara Martin-Senn,F,SBD,F-V,47,Single-ply,2000,,WI,46.3,77.5,-82.5,-82.5,77.5,35,-37.5,-37.5,35,82.5,87.5,92.5,92.5,205
1,Mikaela Leibfried,F,SBD,F-V,52,Single-ply,1999,,WI,51.5,-147.5,147.5,-160,147.5,-80,80,82.5,82.5,132.5,137.5,142.5,142.5,372.5
2,Quamecca Stafford,F,SBD,F-V,52,Single-ply,2003,,LA,49.7,112.5,122.5,130,130,-67.5,-67.5,70,70,142.5,155,-172.5,155,355
3,Ashley Lee,F,SBD,F-V,52,Single-ply,2001,Cudahy High School,WI,51.9,122.5,-125,-125,122.5,60,65,-67.5,65,125,-132.5,-132.5,125,312.5
4,Cara Scott,F,SBD,F-V,52,Single-ply,2001,Covington High school,LA,50.8,-112.5,112.5,-120,112.5,52.5,60,-65,60,105,115,127.5,127.5,300
5,Destiny LeBlanc,F,SBD,F-V,52,Single-ply,2001,Covington High school,LA,50.3,102.5,112.5,120,120,52.5,60,-62.5,60,102.5,110,117.5,117.5,297.5
6,Bridget Seghers,F,SBD,F-V,52,Single-ply,2002,Covington High school,LA,51.3,110,120,-125,120,55,65,-70,65,100,107.5,112.5,112.5,297.5
1,Britney Kopp,F,SBD,F-V,57,Single-ply,2001,Cudahy High School,WI,55.7,140,145,150,150,-72.5,-72.5,72.5,72.5,135,140,-145,140,362.5
2,Chelsea Baudoin,F,SBD,F-V,57,Single-ply,1999,Abbeville,LA,54.1,115,127.5,135,135,72.5,80,-87.5,80,117.5,127.5,135,135,350
3,Jennifer Salazar,F,SBD,F-V,57,Single-ply,2000,Independence High School,WI,55.1,125,132.5,-140,132.5,-62.5,65,67.5,67.5,125,132.5,137.5,137.5,337.5
4,Madison Catalanotto,F,SBD,F-V,57,Single-ply,2000,Covington High school,LA,56.8,120,125,132.5,132.5,65,75,-77.5,75,110,120,127.5,127.5,335
5,Lauren Freeck,F,SBD,F-V,57,Single-ply,2001,Cudahy High School,WI,55.8,107.5,117.5,127.5,127.5,55,57.5,-60,57.5,147.5,-157.5,-157.5,147.5,332.5
6,Taylor Wyngaard,F,SBD,F-V,57,Single-ply,2001,Neenah High School,WI,53,125,135,-140,135,60,65,70,70,112.5,122.5,-130,122.5,327.5
7,Haley Chojnacki,F,SBD,F-V,57,Single-ply,1999,,WI,56.1,120,130,-137.5,130,62.5,65,67.5,67.5,115,125,-137.5,125,322.5
8,Alexis Laiche,F,SBD,F-V,57,Single-ply,2002,,LA,56,112.5,125,130,130,52.5,60,-67.5,60,117.5,130,-147.5,130,320
9,Anh Khau,F,SBD,F-V,57,Single-ply,1999,Abbeville,LA,56.8,-107.5,-107.5,107.5,107.5,62.5,67.5,70,70,92.5,-105,-105,92.5,270
1,Courtney Corrente,F,SBD,F-V,63,Single-ply,2000,Neenah High School,WI,62.2,160,-170,175,175,62.5,67.5,72.5,72.5,167.5,177.5,-182.5,177.5,425
2,Alyzza Stann,F,SBD,F-V,63,Single-ply,2000,Covington High school,LA,61.1,150,165,-170,165,72.5,85,-90,85,150,160,-175,160,410
3,Abigail Flora,F,SBD,F-V,63,Single-ply,2001,,WI,60.3,137.5,147.5,-155,147.5,65,72.5,75,75,132.5,142.5,-157.5,142.5,365
4,Grace Tollar,F,SBD,F-V,63,Single-ply,2000,Neenah High School,WI,62.4,125,135,142.5,142.5,67.5,72.5,80,80,142.5,-152.5,-160,142.5,365
5,Makayla Jones,F,SBD,F-V,63,Single-ply,2001,Abbeville,LA,59.6,117.5,130,137.5,137.5,75,80,-82.5,80,107.5,117.5,125,125,342.5
6,Abigail Momberg,F,SBD,F-V,63,Single-ply,2000,Cudahy High School,WI,62.6,112.5,117.5,-125,117.5,60,65,-70,65,137.5,147.5,152.5,152.5,335
7,Jamie Regnier,F,SBD,F-V,63,Single-ply,2001,Neenah High School,WI,61.7,125,132.5,-142.5,132.5,52.5,57.5,62.5,62.5,122.5,132.5,137.5,137.5,332.5
8,Kelly Huerta,F,SBD,F-V,63,Single-ply,1999,Carrizo Springs High School,TX,61.2,-120,120,132.5,132.5,57.5,65,-72.5,65,120,130,-147.5,130,327.5
9,Mckenna Lewis,F,SBD,F-V,63,Single-ply,1999,Hershey High School,PA,61.8,117.5,-127.5,-127.5,117.5,57.5,-65,65,65,112.5,127.5,137.5,137.5,320
1,Shyanne Naquin,F,SBD,F-V,72,Single-ply,2000,,LA,65.2,147.5,160,175,175,92.5,105,110,110,142.5,155,160,160,445
2,Shay Naquin,F,SBD,F-V,72,Single-ply,2003,,LA,67,142.5,155,170,170,70,80,-85,80,142.5,157.5,170,170,420
3,Alexandrea Nall,F,SBD,F-V,72,Single-ply,2000,,TX,69.2,-165,165,-172.5,165,67.5,75,-77.5,75,165,172.5,177.5,177.5,417.5
4,Caitlyn Whipple,F,SBD,F-V,72,Single-ply,2000,,WI,69.7,170,-180,-180,170,72.5,-77.5,-77.5,72.5,170,-177.5,-180,170,412.5
5,Kennedy Ketzer,F,SBD,F-V,72,Single-ply,2000,,WI,70.8,145,155,165,165,82.5,87.5,-92.5,87.5,142.5,150,157.5,157.5,410
6,Abigail Saunders,F,SBD,F-V,72,Single-ply,2000,Necedah High School,WI,71.8,157.5,165,-172.5,165,65,72.5,-77.5,72.5,160,170,-175,170,407.5
7,Cloe Winters,F,SBD,F-V,72,Single-ply,2000,Necedah High School,WI,71.6,-147.5,147.5,157.5,157.5,55,60,62.5,62.5,150,157.5,-162.5,157.5,377.5
8,Rhonda Peronto,F,SBD,F-V,72,Single-ply,1999,Cudahy High School,WI,70.2,142.5,-150,150,150,67.5,72.5,77.5,77.5,137.5,142.5,-155,142.5,370
9,Erin Whipple,F,SBD,F-V,72,Single-ply,2001,,WI,67.1,142.5,-152.5,-152.5,142.5,55,-60,-60,55,147.5,-157.5,157.5,157.5,355
10,Joscelyn Collins,F,SBD,F-V,72,Single-ply,2002,Covington High school,LA,71.2,115,125,-132.5,125,75,82.5,90,90,115,125,132.5,132.5,347.5
11,Hailey Matherne,F,SBD,F-V,72,Single-ply,2001,,LA,69.4,115,125,132.5,132.5,65,70,72.5,72.5,120,-127.5,127.5,127.5,332.5
12,Reagan Ekstrom,F,SBD,F-V,72,Single-ply,1999,,WI,66.9,112.5,117.5,-125,117.5,60,62.5,-65,62.5,-147.5,-147.5,147.5,147.5,327.5
13,Isabella Mullally,F,SBD,F-V,72,Single-ply,2002,Neenah High School,WI,70.3,125,130,135,135,62.5,-67.5,67.5,67.5,115,125,-132.5,125,327.5
14,Emily Schneider #1,F,SBD,F-V,72,Single-ply,2000,Covington High school,LA,65.4,115,122.5,-132.5,122.5,60,65,-72.5,65,105,117.5,127.5,127.5,315
15,Kendal Frazier,F,SBD,F-V,72,Single-ply,2003,Covington High school,LA,66.5,-115,115,125,125,57.5,-65,-65,57.5,105,115,-122.5,115,297.5
1,Dallas Cavegn,F,SBD,F-V,84,Single-ply,2000,Neenah High School,WI,78.4,167.5,-177.5,185,185,85,92.5,102.5,102.5,145,157.5,167.5,167.5,455
2,Geri Fredrickson,F,SBD,F-V,84,Single-ply,2001,Independence High School,WI,79,-170,-175,175,175,82.5,87.5,-92.5,87.5,142.5,152.5,162.5,162.5,425
3,Madelyn Woychik,F,SBD,F-V,84,Single-ply,2000,Independence High School,WI,82.8,137.5,142.5,147.5,147.5,92.5,-97.5,-97.5,92.5,147.5,160,167.5,167.5,407.5
4,Heidi Colvin,F,SBD,F-V,84,Single-ply,1999,,WI,81.9,-165,-165,165,165,72.5,80,-85,80,160,-172.5,-172.5,160,405
5,Alexea Engel,F,SBD,F-V,84,Single-ply,1999,,WI,83.4,-155,155,162.5,162.5,-65,-65,65,65,137.5,147.5,-150,147.5,375
6,Samantha Kristian,F,SBD,F-V,84,Single-ply,2000,Necedah High School,WI,81.5,147.5,155,162.5,162.5,62.5,-67.5,67.5,67.5,135,-142.5,-150,135,365
7,Adasha Silas,F,SBD,F-V,84,Single-ply,1999,Covington High school,LA,79.6,110,122.5,132.5,132.5,65,75,-85,75,125,132.5,-157.5,132.5,340
1,Carlie Walker,F,SBD,F-V,84+,Single-ply,1999,,WI,155.9,205,215,-225,215,162.5,171,178,178,175,185,190,190,583
2,Kristen Opiela,F,SBD,F-V,84+,Single-ply,2000,Neenah High School,WI,107.3,-215,-220,220,220,92.5,-102.5,102.5,102.5,195,207.5,215,215,537.5
3,Danielle Eaglin,F,SBD,F-V,84+,Single-ply,2001,Neenah High School,WI,88.7,-165,170,180,180,77.5,85,92.5,92.5,155,167.5,175,175,447.5
4,Harmoni Brown,F,SBD,F-V,84+,Single-ply,2001,Covington High school,LA,119.1,155,170,180,180,102.5,110,117.5,117.5,140,150,-155,150,447.5
5,Sabrina Servais,F,SBD,F-V,84+,Single-ply,1999,,WI,109.4,187.5,-192.5,192.5,192.5,65,67.5,-70,67.5,147.5,155,170,170,430
6,Lainey Trahan,F,SBD,F-V,84+,Single-ply,2001,Abbeville,LA,120.2,137.5,157.5,167.5,167.5,105,110,115,115,127.5,147.5,-160,147.5,430
7,Melanie Louque,F,SBD,F-V,84+,Single-ply,2001,,LA,91.4,145,157.5,-162.5,157.5,72.5,80,-87.5,80,142.5,160,-165,160,397.5
8,Nicole Schmucki,F,SBD,F-V,84+,Single-ply,1999,,WI,110.5,132.5,-145,-145,132.5,85,92.5,-97.5,92.5,162.5,170,-175,170,395
9,Megan Peters,F,SBD,F-V,84+,Single-ply,2000,Hershey High School,PA,127.2,-150,155,-165,155,57.5,67.5,-72.5,67.5,117.5,130,140,140,362.5
G,Alana Feser,F,SBD,FR-G,84,Raw,2001,,WI,73.8,85,90,95,95,47.5,52.5,55,55,102.5,110,117.5,117.5,267.5
1,Rachel Klein,F,SBD,FR-JV,47,Raw,2002,,PA,46.3,72.5,77.5,-80,77.5,37.5,42.5,45,45,77.5,82.5,87.5,87.5,210
1,Olivia Tomasi,F,SBD,FR-JV,52,Raw,2001,,WI,50.7,80,87.5,-90,87.5,37.5,42.5,-47.5,42.5,-102.5,102.5,-112.5,102.5,232.5
2,Kyla Kubera,F,SBD,FR-JV,52,Raw,2003,,WI,50.3,70,75,-80,75,37.5,40,42.5,42.5,87.5,92.5,100,100,217.5
3,Emily Freagon,F,SBD,FR-JV,52,Raw,2002,,WI,51.1,62.5,67.5,72.5,72.5,37.5,40,-42.5,40,80,-85,85,85,197.5
4,Peyton Paa,F,SBD,FR-JV,52,Raw,2002,,SD,49,60,67.5,80,80,37.5,42.5,-45,42.5,70,-80,-80,70,192.5
5,Destine Farmer,F,SBD,FR-JV,52,Raw,2002,Kasson-Mantorville High School,MN,50.7,47.5,62.5,67.5,67.5,25,-35,-35,25,-75,85,-90,85,177.5
1,Clare Hallum,F,SBD,FR-JV,57,Raw,2002,Elk Mound High School,WI,54.5,82.5,87.5,95,95,37.5,42.5,-45,42.5,97.5,105,110,110,247.5
DQ,Ezme Ressler,F,SBD,FR-JV,57,Raw,2003,,WI,54.6,70,75,-77.5,75,37.5,40,-42.5,40,-85,-85,-85,,
1,Jordan Braund,F,SBD,FR-JV,63,Raw,2002,,WI,62.4,110,-122.5,122.5,122.5,55,60,-62.5,60,125,137.5,142.5,142.5,325
2,Olivia Pappadopoulos,F,SBD,FR-JV,63,Raw,2001,,WI,61.9,77.5,85,90,90,55,-57.5,-57.5,55,120,132.5,-137.5,132.5,277.5
3,Elizabeth Meyer,F,SBD,FR-JV,63,Raw,2002,,WI,60.4,85,92.5,-95,92.5,42.5,45,47.5,47.5,117.5,125,135,135,275
4,Taylor Van De Hey,F,SBD,FR-JV,63,Raw,2002,,WI,61.3,90,95,-97.5,95,40,45,47.5,47.5,120,-135,-135,120,262.5
5,Adriana Domenech,F,SBD,FR-JV,63,Raw,2002,Mauston High School,WI,61.1,77.5,82.5,90,90,32.5,-40,-40,32.5,115,122.5,130,130,252.5
6,Ashton Miller,F,SBD,FR-JV,63,Raw,2002,,WI,58.4,87.5,-92.5,92.5,92.5,-50,50,-55,50,95,102.5,107.5,107.5,250
7,Brynn Zwiefelhofer,F,SBD,FR-JV,63,Raw,2001,,WI,58,62.5,-70,72.5,72.5,37.5,40,-42.5,40,92.5,105,115,115,227.5
8,Isabelle Varga,F,SBD,FR-JV,63,Raw,2001,,WI,62.7,77.5,85,-92.5,85,35,-40,-40,35,87.5,95,100,100,220
9,Julia Grabowski,F,SBD,FR-JV,63,Raw,2001,,WI,59,-70,70,75,75,32.5,35,-37.5,35,85,90,95,95,205
10,Taylor Goldschmidt,F,SBD,FR-JV,63,Raw,2002,Kasson-Mantorville High School,MN,61.8,42.5,50,-55,50,30,35,-37.5,35,72.5,87.5,-97.5,87.5,172.5
1,Elena Marquez,F,SBD,FR-JV,72,Raw,2001,Necedah High School,WI,67.9,125,130,137.5,137.5,52.5,55,57.5,57.5,125,132.5,137.5,137.5,332.5
2,Somer Nolte,F,SBD,FR-JV,72,Raw,2002,Necedah High School,WI,70.6,107.5,112.5,-117.5,112.5,57.5,60,65,65,115,120,125,125,302.5
3,Kortnee Halgren,F,SBD,FR-JV,72,Raw,2001,Elk Mound High School,WI,68.3,92.5,100,-105,100,42.5,45,-47.5,45,130,137.5,142.5,142.5,287.5
4,Mackenzie Edgar,F,SBD,FR-JV,72,Raw,2001,Kasson-Mantorville High School,MN,70.3,85,97.5,102.5,102.5,40,-45,45,45,120,-135,135,135,282.5
5,Hannah Jensen,F,SBD,FR-JV,72,Raw,2001,,WI,66,100,-105,-105,100,45,47.5,-50,47.5,130,-132.5,132.5,132.5,280
6,Emma Dillon,F,SBD,FR-JV,72,Raw,2001,,IN,67.8,92.5,100,105,105,50,55,-60,55,97.5,107.5,117.5,117.5,277.5
7,Cabria Zuehlke,F,SBD,FR-JV,72,Raw,2003,,WI,69.2,80,87.5,95,95,47.5,50,-52.5,50,115,130,-142.5,130,275
8,Sierra Smith #1,F,SBD,FR-JV,72,Raw,2003,Neenah High School,WI,71.5,82.5,90,95,95,42.5,45,-47.5,45,115,-125,125,125,265
9,Madison Daugherty,F,SBD,FR-JV,72,Raw,2001,Ionia High School,MI,65.4,85,92.5,97.5,97.5,-47.5,47.5,55,55,92.5,102.5,107.5,107.5,260
10,Samantha Morgen,F,SBD,FR-JV,72,Raw,2002,,WI,70.6,85,92.5,-95,92.5,40,45,-47.5,45,115,122.5,-135,122.5,260
11,Nevaeh Brewer,F,SBD,FR-JV,72,Raw,2001,,WI,65.9,85,90,-95,90,-45,-45,45,45,112.5,117.5,-122.5,117.5,252.5
12,Kylie Yates,F,SBD,FR-JV,72,Raw,2002,,WY,63.8,-92.5,92.5,97.5,97.5,42.5,-45,-45,42.5,92.5,102.5,-105,102.5,242.5
13,Maggie Amundson,F,SBD,FR-JV,72,Raw,2002,,WI,65.1,85,-92.5,-92.5,85,40,45,-50,45,105,112.5,-117.5,112.5,242.5
14,Ashley Hallstrom,F,SBD,FR-JV,72,Raw,2002,Kasson-Mantorville High School,MN,70.3,62.5,77.5,-82.5,77.5,30,37.5,40,40,95,100,105,105,222.5
15,Ariel Brinker,F,SBD,FR-JV,72,Raw,2002,,OH,69.8,80,-87.5,-92.5,80,-40,42.5,-45,42.5,85,92.5,97.5,97.5,220
1,Lillii Armstrong,F,SBD,FR-JV,84,Raw,2002,,MI,79.6,112.5,120,-125,120,62.5,67.5,70,70,150,-165,-165,150,340
2,Mikayla Zoellner,F,SBD,FR-JV,84,Raw,2002,,IN,78.7,-105,107.5,115,115,57.5,62.5,67.5,67.5,120,130,140,140,322.5
3,Madison Grigg,F,SBD,FR-JV,84,Raw,2002,,MI,79,-102.5,102.5,-110,102.5,52.5,57.5,-60,57.5,125,142.5,152.5,152.5,312.5
4,Brianne Wilson,F,SBD,FR-JV,84,Raw,2002,Necedah High School,WI,76.5,115,120,125,125,45,50,55,55,100,107.5,112.5,112.5,292.5
5,Meghan Malisheske,F,SBD,FR-JV,84,Raw,2003,Kasson-Mantorville High School,MN,82.1,85,95,102.5,102.5,35,42.5,-45,42.5,117.5,130,-140,130,275
6,Paige Dvorak,F,SBD,FR-JV,84,Raw,2001,,WI,81.1,-95,95,107.5,107.5,-42.5,42.5,-47.5,42.5,107.5,120,-132.5,120,270
7,Alicia Suzda,F,SBD,FR-JV,84,Raw,2002,Necedah High School,WI,78.6,-75,75,80,80,32.5,35,37.5,37.5,112.5,120,125,125,242.5
8,Hannah Guerrero,F,SBD,FR-JV,84,Raw,2003,Calvary Baptist Academy,LA,75.9,80,87.5,-92.5,87.5,35,40,-42.5,40,85,-102.5,-102.5,85,212.5
1,Isabel Figueroa,F,SBD,FR-JV,84+,Raw,2002,,IL,122.2,150,165,167.5,167.5,75,-80,80,80,167.5,175,-182.5,175,422.5
2,Megan Gibbs,F,SBD,FR-JV,84+,Raw,2002,,GA,85.3,145,152.5,-155,152.5,72.5,-77.5,77.5,77.5,165,175,-182.5,175,405
3,Elvecia Najera,F,SBD,FR-JV,84+,Raw,2001,Independence High School,WI,126.7,117.5,-130,-140,117.5,52.5,57.5,-60,57.5,135,142.5,155,155,330
4,Daniela Villagrana,F,SBD,FR-JV,84+,Raw,2002,Kasson-Mantorville High School,MN,119.4,-100,102.5,-112.5,102.5,50,55,62.5,62.5,140,155,-157.5,155,320
5,Jenna Morris,F,SBD,FR-JV,84+,Raw,2003,,WI,115.5,92.5,97.5,100,100,45,50,55,55,122.5,127.5,-132.5,127.5,282.5
6,Tiffany Hatfield,F,SBD,FR-JV,84+,Raw,2002,Mauston High School,WI,130.1,-100,105,-110,105,40,45,52.5,52.5,105,117.5,-132.5,117.5,275
7,Adara Johnson,F,SBD,FR-JV,84+,Raw,2003,,WI,128,87.5,95,105,105,-50,52.5,57.5,57.5,92.5,102.5,107.5,107.5,270
8,Lindsey Murlick,F,SBD,FR-JV,84+,Raw,2003,Birch Run High School,MI,101.1,67.5,75,82.5,82.5,40,45,50,50,95,107.5,120,120,252.5
1,Yadira Ortiz,F,SBD,FR-V,43,Raw,2003,,WI,42.6,57.5,62.5,-67.5,62.5,32.5,35,-37.5,35,77.5,85,-95,85,182.5
2,Alexandra Lazarus,F,SBD,FR-V,43,Raw,2000,Calvary Baptist Academy,LA,41.2,57.5,62.5,67.5,67.5,30,32.5,35,35,72.5,77.5,-90,77.5,180
1,Kailey Brookshire,F,SBD,FR-V,47,Raw,2002,Calvary Baptist Academy,LA,46.7,75,80,82.5,82.5,47.5,52.5,55,55,102.5,112.5,-117.5,112.5,250
2,Caralee Suchomel,F,SBD,FR-V,47,Raw,2003,,WI,46.4,67.5,72.5,77.5,77.5,47.5,52.5,-55,52.5,100,107.5,-115,107.5,237.5
3,Madelyn Day,F,SBD,FR-V,47,Raw,2000,Croswell Lexington High School,MI,46.4,62.5,67.5,72.5,72.5,40,-45,-45,40,92.5,105,-112.5,105,217.5
4,Kaylee Cochran,F,SBD,FR-V,47,Raw,2000,,MI,46.3,57.5,62.5,77.5,77.5,-32.5,37.5,40,40,95,-115,-115,95,212.5
5,Jessica Mohan,F,SBD,FR-V,47,Raw,2001,,WI,45.1,62.5,70,75,75,35,40,-42.5,40,80,87.5,90,90,205
1,Ariel Moris,F,SBD,FR-V,52,Raw,2001,,WI,51.1,87.5,-95,95,95,47.5,-52.5,52.5,52.5,117.5,-122.5,122.5,122.5,270
2,Mari Stafslien,F,SBD,FR-V,52,Raw,2002,,WI,51.7,82.5,87.5,92.5,92.5,45,47.5,-50,47.5,112.5,120,127.5,127.5,267.5
3,Sophia Salter,F,SBD,FR-V,52,Raw,2001,,SD,51,77.5,82.5,85,85,42.5,45,-47.5,45,115,127.5,132.5,132.5,262.5
4,Jelly Barr,F,SBD,FR-V,52,Raw,1999,Mauston High School,WI,51.3,90,100,105,105,35,37.5,40,40,100,110,-117.5,110,255
5,Laurel Shaw,F,SBD,FR-V,52,Raw,2000,Croswell Lexington High School,MI,51.7,85,87.5,90,90,45,47.5,50,50,107.5,115,-125,115,255
6,Hayden Fitzgerald,F,SBD,FR-V,52,Raw,2000,Birch Run High School,MI,47.5,75,85,90,90,42.5,47.5,-50,47.5,95,105,115,115,252.5
7,Emily Christian,F,SBD,FR-V,52,Raw,2000,Croswell Lexington High School,MI,51.4,85,-90,92.5,92.5,40,42.5,-45,42.5,102.5,117.5,-122.5,117.5,252.5
8,Sarah Thorn,F,SBD,FR-V,52,Raw,1999,,WI,49.3,67.5,-70,70,70,37.5,40,-42.5,40,95,105,110,110,220
9,Aubrey Mayo,F,SBD,FR-V,52,Raw,2002,Calvary Baptist Academy,LA,49.6,82.5,87.5,90,90,37.5,-42.5,-42.5,37.5,-85,92.5,-100,92.5,220
10,Hanna Hollister,F,SBD,FR-V,52,Raw,2001,Elk Mound High School,WI,51.8,67.5,72.5,-75,72.5,35,40,-42.5,40,97.5,102.5,-112.5,102.5,215
11,Olivia Biggiam,F,SBD,FR-V,52,Raw,2000,Ridgeview,IL,50.6,60,62.5,-65,62.5,32.5,35,-37.5,35,-92.5,92.5,102.5,102.5,200
1,Kenzie Svoboda,F,SBD,FR-V,57,Raw,2000,,WI,56.4,105,110,-115,110,57.5,62.5,65,65,127.5,132.5,140,140,315
2,Noelle Marinez,F,SBD,FR-V,57,Raw,1999,Croswell Lexington High School,MI,56.3,102.5,107.5,-112.5,107.5,-47.5,47.5,-50,47.5,125,-132.5,-132.5,125,280
3,Anna Delao,F,SBD,FR-V,52,Raw,2000,,WI,52,82.5,90,95,95,47.5,-52.5,52.5,52.5,115,122.5,127.5,127.5,275
4,Alannah Burke,F,SBD,FR-V,57,Raw,2000,,WI,55.5,85,87.5,90,90,45,47.5,-50,47.5,127.5,132.5,135,135,272.5
5,Anna Maramonte,F,SBD,FR-V,57,Raw,2000,,WI,56.1,87.5,92.5,95,95,42.5,45,47.5,47.5,110,117.5,125,125,267.5
6,Eva Boyum,F,SBD,FR-V,57,Raw,2001,,SD,56.4,92.5,105,-110,105,35,40,42.5,42.5,120,-130,-132.5,120,267.5
7,Skylar Odom,F,SBD,FR-V,57,Raw,2003,Calvary Baptist Academy,LA,56.6,80,85,87.5,87.5,40,42.5,45,45,92.5,102.5,122.5,122.5,255
8,Anastasia McCourt,F,SBD,FR-V,57,Raw,2001,,WI,55.9,85,-90,-92.5,85,47.5,-50,-50,47.5,110,115,-120,115,247.5
9,Jennifer Chatwell,F,SBD,FR-V,52,Raw,2000,,SD,52,75,-82.5,-82.5,75,50,-55,-55,50,95,100,-105,100,225
10,Mackenzie Nguyen,F,SBD,FR-V,57,Raw,2000,Abbeville,LA,52.3,72.5,80,-82.5,80,37.5,42.5,-45,42.5,-97.5,97.5,100,100,222.5
DQ,Ellen Mills,F,SBD,FR-V,57,Raw,1999,,WI,56.2,-75,-82.5,-82.5,,45,47.5,50,50,120,-125,-125,120,
1,Hannah Slater,F,SBD,FR-V,63,Raw,2000,,WI,61.6,120,125,130,130,55,57.5,60,60,125,130,135,135,325
2,Katelyn Dundas,F,SBD,FR-V,63,Raw,1999,,NC,61.1,92.5,-102.5,102.5,102.5,55,60,62.5,62.5,122.5,130,137.5,137.5,302.5
3,Jamie Hernandez #1,F,SBD,FR-V,63,Raw,2000,Mauston High School,WI,61.6,-105,-105,105,105,52.5,55,-60,55,120,-127.5,127.5,127.5,287.5
5,Rylie Kolakovich,F,SBD,FR-V,63,Raw,2000,Croswell Lexington High School,MI,61.8,90,92.5,-97.5,92.5,55,-57.5,-57.5,55,137.5,-145,-145,137.5,285
4,Shyla Dake,F,SBD,FR-V,63,Raw,2000,,WI,61.8,97.5,102.5,-105,102.5,47.5,55,62.5,62.5,120,-137.5,-137.5,120,285
6,Rachel Folde,F,SBD,FR-V,63,Raw,2001,,SD,62.6,-85,87.5,95,95,50,-52.5,-52.5,50,120,125,130,130,275
7,Francesca Sokolik,F,SBD,FR-V,63,Raw,2000,,WI,61.3,87.5,-92.5,-92.5,87.5,47.5,-50,52.5,52.5,125,130,-135,130,270
8,Anna Sackett,F,SBD,FR-V,63,Raw,2001,,WI,59.2,92.5,102.5,-110,102.5,-50,57.5,60,60,102.5,-112.5,-112.5,102.5,265
9,Cailey Erickson,F,SBD,FR-V,63,Raw,1999,,WI,58.2,77.5,87.5,92.5,92.5,50,52.5,-55,52.5,105,115,-120,115,260
10,Allyson Mcdonald,F,SBD,FR-V,63,Raw,2001,,SD,60.9,85,-90,-92.5,85,45,47.5,-50,47.5,107.5,112.5,117.5,117.5,250
11,Kaylin Little,F,SBD,FR-V,63,Raw,2002,Calvary Baptist Academy,LA,62.4,-92.5,92.5,-97.5,92.5,45,50,52.5,52.5,85,95,105,105,250
12,Elly Bjork,F,SBD,FR-V,63,Raw,2001,,WI,62,60,65,72.5,72.5,42.5,-47.5,47.5,47.5,102.5,-110,110,110,230
1,Abigail Joseph,F,SBD,FR-V,72,Raw,2000,,MI,69.45,-112.5,112.5,125,125,70,-75,75,75,142.5,152.5,160,160,360
2,Brenna Zuehlke,F,SBD,FR-V,72,Raw,2000,,WI,69.9,122.5,127.5,130,130,65,67.5,-72.5,67.5,140,150,157.5,157.5,355
3,Allison Lindquist,F,SBD,FR-V,72,Raw,2000,Elk Mound High School,WI,67,130,135,137.5,137.5,57.5,60,-62.5,60,145,155,-160,155,352.5
4,Miranda Koehnke,F,SBD,FR-V,72,Raw,2001,Mauston High School,WI,70.65,117.5,122.5,125,125,55,60,62.5,62.5,137.5,145,-147.5,145,332.5
5,Sophia Becerra,F,SBD,FR-V,72,Raw,2000,Necedah High School,WI,68.55,110,117.5,122.5,122.5,52.5,55,57.5,57.5,127.5,135,140,140,320
6,Morgan Mayo,F,SBD,FR-V,72,Raw,2000,Birch Run High School,MI,63.2,110,120,130,130,50,55,-57.5,55,110,122.5,132.5,132.5,317.5
7,Scout Zinniel,F,SBD,FR-V,72,Raw,2000,,WI,70.35,92.5,97.5,100,100,50,52.5,-55,52.5,147.5,157.5,162.5,162.5,315
8,Hannah White,F,SBD,FR-V,72,Raw,1999,,PA,67.55,100,105,-110,105,55,60,62.5,62.5,125,137.5,142.5,142.5,310
9,Madeline Jenson,F,SBD,FR-V,72,Raw,2000,Elk Mound High School,WI,69.2,102.5,-107.5,-107.5,102.5,57.5,-60,60,60,125,132.5,135,135,297.5
10,Sophia Howard,F,SBD,FR-V,72,Raw,2002,,WA,69.45,90,97.5,102.5,102.5,50,55,-60,55,120,130,137.5,137.5,295
11,Abagayle Kasper,F,SBD,FR-V,72,Raw,2001,Elk Mound High School,WI,70.4,82.5,95,-97.5,95,57.5,60,-62.5,60,132.5,135,137.5,137.5,292.5
12,Rebecca Lee,F,SBD,FR-V,72,Raw,2000,,WI,70.7,87.5,95,100,100,42.5,47.5,-50,47.5,115,127.5,137.5,137.5,285
13,Jayme Randolph,F,SBD,FR-V,72,Raw,2001,Croswell Lexington High School,MI,71.3,-97.5,97.5,102.5,102.5,45,47.5,50,50,117.5,127.5,-140,127.5,280
14,Aliya Brown,F,SBD,FR-V,72,Raw,1999,,WI,64.35,95,-102.5,-102.5,95,-57.5,60,65,65,100,107.5,112.5,112.5,272.5
15,Nadine Alberg,F,SBD,FR-V,72,Raw,2000,Neenah High School,WI,70.2,92.5,97.5,-107.5,97.5,52.5,57.5,-60,57.5,107.5,115,-122.5,115,270
16,Hannah Cynor,F,SBD,FR-V,72,Raw,2000,Elk Mound High School,WI,64.7,85,92.5,-95,92.5,47.5,-52.5,-52.5,47.5,115,-122.5,122.5,122.5,262.5
17,Arla Davis,F,SBD,FR-V,72,Raw,2001,,PA,66.4,72.5,77.5,-82.5,77.5,45,47.5,50,50,115,122.5,127.5,127.5,255
18,Abigale Modesette,F,SBD,FR-V,72,Raw,2001,,WI,64.9,85,87.5,90,90,37.5,42.5,-45,42.5,112.5,117.5,-132.5,117.5,250
1,Abbi Stafslien-Dumale,F,SBD,FR-V,84,Raw,2000,,WI,83.4,-157.5,157.5,-160,157.5,72.5,-77.5,-77.5,72.5,157.5,167.5,172.5,172.5,402.5
2,Morgan Gilliam,F,SBD,FR-V,84,Raw,2000,Birch Run High School,MI,81,130,140,147.5,147.5,65,70,-75,70,152.5,165,175,175,392.5
3,Sydney Krueger,F,SBD,FR-V,84,Raw,2002,,WI,82.4,117.5,130,140,140,52.5,57.5,60,60,142.5,157.5,162.5,162.5,362.5
4,Lexxie Barr,F,SBD,FR-V,84,Raw,1999,Mauston High School,WI,77.4,130,140,-145,140,-55,55,57.5,57.5,140,150,155,155,352.5
5,Makilie Paluch,F,SBD,FR-V,84,Raw,2001,,SD,80.3,110,120,-125,120,60,65,-70,65,137.5,147.5,155,155,340
6,Cheyenne Banasik,F,SBD,FR-V,84,Raw,1999,,WI,77,105,110,112.5,112.5,55,60,-65,60,150,155,157.5,157.5,330
7,Emily Nickolai,F,SBD,FR-V,84,Raw,1999,Neenah High School,WI,79.5,105,112.5,122.5,122.5,57.5,60,62.5,62.5,125,137.5,-140,137.5,322.5
8,Marie Haase,F,SBD,FR-V,84,Raw,2000,,WI,81.7,102.5,-110,-110,102.5,50,52.5,55,55,147.5,160,-162.5,160,317.5
9,Haley Harms,F,SBD,FR-V,84,Raw,2000,,WI,82.2,-115,115,-125,115,62.5,-65,-65,62.5,115,127.5,-132.5,127.5,305
10,Elizabeth Lubeck,F,SBD,FR-V,84,Raw,2001,,SD,82.6,110,117.5,-125,117.5,52.5,55,-57.5,55,125,132.5,-142.5,132.5,305
11,Kyla Egan,F,SBD,FR-V,84,Raw,2000,Elk Mound High School,WI,73.7,97.5,102.5,-107.5,102.5,52.5,55,-57.5,55,135,142.5,-145,142.5,300
12,Michelle Steffens,F,SBD,FR-V,84,Raw,2000,Mauston High School,WI,74.7,95,100,110,110,37.5,40,45,45,117.5,132.5,142.5,142.5,297.5
13,Virginia McMillan,F,SBD,FR-V,84,Raw,2001,,WI,80.2,95,100,105,105,57.5,-62.5,-62.5,57.5,112.5,120,132.5,132.5,295
14,Nicole Heller,F,SBD,FR-V,84,Raw,2000,,WI,74.2,102.5,107.5,112.5,112.5,47.5,50,52.5,52.5,-120,125,-132.5,125,290
15,Allison Stencil,F,SBD,FR-V,84,Raw,2000,,WI,75.6,92.5,95,-100,95,55,60,-62.5,60,122.5,-132.5,132.5,132.5,287.5
16,Katherine Donovan,F,SBD,FR-V,84,Raw,2001,,WI,80.9,100,-105,105,105,42.5,47.5,-50,47.5,125,135,-137.5,135,287.5
17,Hannah Hawkins,F,SBD,FR-V,84,Raw,1999,Elk Mound High School,WI,78,-102.5,-102.5,102.5,102.5,47.5,-52.5,-52.5,47.5,120,130,-137.5,130,280
18,Madison Weigandt,F,SBD,FR-V,84,Raw,2000,Birch Run High School,MI,81.7,95,-102.5,-110,95,52.5,57.5,60,60,115,125,-135,125,280
19,Faith Brooks,F,SBD,FR-V,84,Raw,2000,,WI,82.9,-97.5,102.5,-107.5,102.5,47.5,52.5,-55,52.5,102.5,117.5,122.5,122.5,277.5
20,Hannah Caron,F,SBD,FR-V,84,Raw,2000,Elk Mound High School,WI,82,92.5,95,-100,95,55,-57.5,-57.5,55,120,125,-130,125,275
21,Emma Scott,F,SBD,FR-V,84,Raw,2002,,WI,73.2,90,-92.5,-92.5,90,50,52.5,-55,52.5,125,130,-135,130,272.5
22,Sara Erickson,F,SBD,FR-V,84,Raw,1999,Mauston High School,WI,75.4,95,100,105,105,47.5,50,-55,50,115,117.5,-125,117.5,272.5
23,Abigail Mcnitt,F,SBD,FR-V,84,Raw,1999,,WI,82.2,90,-97.5,97.5,97.5,47.5,-50,-50,47.5,117.5,125,-127.5,125,270
1,Hailee Markey,F,SBD,FR-V,84+,Raw,2000,,WI,117.1,150,160,170,170,70,75,-80,75,167.5,180,185,185,430
2,Madison Hollingshead,F,SBD,FR-V,84+,Raw,2000,,SD,107.1,152.5,170,-182.5,170,70,75,80,80,152.5,-160,-165,152.5,402.5
3,Jasmine Greer,F,SBD,FR-V,84+,Raw,2002,,SD,108.7,-135,135,-155,135,70,77.5,-82.5,77.5,190,-205,-217.5,190,402.5
4,Miranda Rueter,F,SBD,FR-V,84+,Raw,2000,,WI,133.3,142.5,150,155,155,90,92.5,95,95,147.5,152.5,-157.5,152.5,402.5
5,Sydney Regan,F,SBD,FR-V,84+,Raw,2002,,WI,118.4,140,147.5,155,155,57.5,60,62.5,62.5,155,167.5,-172.5,167.5,385
6,Abbigayle Herman,F,SBD,FR-V,84+,Raw,2000,,WI,105.4,127.5,-137.5,137.5,137.5,60,65,70,70,137.5,152.5,-177.5,152.5,360
7,Jenna Hayre,F,SBD,FR-V,84+,Raw,2001,Croswell Lexington High School,MI,102.3,140,147.5,-155,147.5,70,-75,-75,70,140,,,140,357.5
8,Rachel Hare,F,SBD,FR-V,84+,Raw,2000,Birch Run High School,MI,99.3,102.5,112.5,122.5,122.5,55,60,65,65,145,155,165,165,352.5
9,Coryn Davidson,F,SBD,FR-V,84+,Raw,2001,,WI,117.2,-120,120,-130,120,60,62.5,-65,62.5,157.5,170,-180,170,352.5
10,Hailey Durand-Christianson,F,SBD,FR-V,84+,Raw,1999,,WI,99.7,117.5,127.5,-140,127.5,67.5,-72.5,-75,67.5,132.5,142.5,152.5,152.5,347.5
11,Makayla Mattson,F,SBD,FR-V,84+,Raw,1999,,WI,121.1,110,120,-132.5,120,70,75,80,80,132.5,137.5,-147.5,137.5,337.5
12,Sierra Keyes,F,SBD,FR-V,84+,Raw,1999,,WI,92.5,112.5,117.5,122.5,122.5,60,67.5,-72.5,67.5,127.5,135,145,145,335
13,Alexis Lee,F,SBD,FR-V,84+,Raw,2001,Elk Mound High School,WI,109.2,117.5,122.5,127.5,127.5,52.5,57.5,-60,57.5,135,140,142.5,142.5,327.5
14,Cora Bibeau,F,SBD,FR-V,84+,Raw,2000,,WI,116.5,112.5,117.5,-122.5,117.5,37.5,45,50,50,120,130,135,135,302.5
15,Mackenzie Morrison,F,SBD,FR-V,84+,Raw,2000,Croswell Lexington High School,MI,96.5,110,122.5,-135,122.5,52.5,-57.5,-57.5,52.5,110,117.5,125,125,300
16,Riley Schroeder,F,SBD,FR-V,84+,Raw,2000,,WI,90.6,-87.5,-87.5,95,95,52.5,55,-57.5,55,135,142.5,-147.5,142.5,292.5
17,Erin DeLong,F,SBD,FR-V,84+,Raw,2000,Elk Mound High School,WI,94.7,100,107.5,-110,107.5,57.5,60,-62.5,60,115,125,-130,125,292.5
18,Savannah Tunks,F,SBD,FR-V,84+,Raw,2000,,WI,112.9,-110,110,112.5,112.5,47.5,50,-57.5,50,120,130,-137.5,130,292.5
19,Hannah Minke,F,SBD,FR-V,84+,Raw,2000,,WI,85.6,107.5,110,112.5,112.5,50,52.5,-55,52.5,115,120,125,125,290
20,Camille Cieszynski,F,SBD,FR-V,84+,Raw,2000,,WI,104.9,107.5,-115,115,115,55,-57.5,-57.5,55,107.5,112.5,-117.5,112.5,282.5
21,Hannah Chart,F,SBD,FR-V,84+,Raw,2001,Waterford Union High School,WI,114.3,-105,-105,107.5,107.5,45,50,-55,50,120,125,-130,125,282.5
22,Anastasia Texley,F,SBD,FR-V,84+,Raw,2000,Necedah High School,WI,104,87.5,-92.5,-92.5,87.5,42.5,47.5,50,50,122.5,132.5,-142.5,132.5,270
DQ,Brandon Orosco,M,SBD,M-G,120+,Single-ply,2000,Carrizo Springs High School,TX,121.2,,,,,,,,,,,,,
1,Corbin Weiss,M,SBD,M-JV,53,Single-ply,2003,Hershey High School,PA,51.8,107.5,-122.5,-122.5,107.5,55,62.5,-65,62.5,-117.5,117.5,130,130,300
2,Dawson Fornander,M,SBD,M-JV,53,Single-ply,2002,Necedah High School,WI,51.5,92.5,100,107.5,107.5,45,-50,50,50,92.5,102.5,117.5,117.5,275
1,Devon Davis,M,SBD,M-JV,59,Single-ply,2001,Hershey High School,PA,57.3,-142.5,142.5,-162.5,142.5,90,95,100,100,152.5,172.5,182.5,182.5,425
1,Ben Wallace #1,M,SBD,M-JV,66,Single-ply,2002,Woodward Academy,IA,63.3,172.5,190,200,200,77.5,85,90,90,170,185,195,195,485
2,Richard Munoz,M,SBD,M-JV,66,Single-ply,2001,Carrizo Springs High School,TX,64.9,150,-160,-160,150,92.5,97.5,102.5,102.5,150,157.5,165,165,417.5
3,Logan Ladwig,M,SBD,M-JV,66,Single-ply,2001,Necedah High School,WI,61.4,135,142.5,157.5,157.5,60,65,70,70,145,155,170,170,397.5
4,Jonas Cream,M,SBD,M-JV,66,Single-ply,2001,Hershey High School,PA,63.1,125,135,137.5,137.5,82.5,90,92.5,92.5,150,165,167.5,167.5,397.5
5,Matthew Youngs,M,SBD,M-JV,66,Single-ply,2002,,WI,63.6,137.5,145,155,155,62.5,67.5,72.5,72.5,142.5,152.5,167.5,167.5,395
6,Shyvez Ekanem,M,SBD,M-JV,66,Single-ply,2003,Woodward Academy,IA,64.6,122.5,140,150,150,82.5,-92.5,-92.5,82.5,132.5,147.5,162.5,162.5,395
7,Jack Schmucki,M,SBD,M-JV,66,Single-ply,2003,,WI,63.5,135,-147.5,152.5,152.5,67.5,75,-80,75,130,140,152.5,152.5,380
8,Clay Riehl,M,SBD,M-JV,66,Single-ply,2003,,WI,64.6,117.5,120,-150,120,72.5,-87.5,-92.5,72.5,127.5,137.5,150,150,342.5
1,Brandon Pierce #2,M,SBD,M-JV,74,Single-ply,2001,,WI,70.6,157.5,-170,175,175,77.5,85,-95,85,195,205,210,210,470
2,Benjamin Potvin,M,SBD,M-JV,74,Single-ply,2002,,WI,72.9,165,-177.5,-177.5,165,92.5,-102.5,-102.5,92.5,180,190,200,200,457.5
3,Tramale Pitchford,M,SBD,M-JV,74,Single-ply,2001,Woodward Academy,IA,71.3,150,170,-185,170,87.5,97.5,-107.5,97.5,170,187.5,-202.5,187.5,455
4,Paris Lane,M,SBD,M-JV,74,Single-ply,2002,Woodward Academy,IA,73.2,160,-182.5,-182.5,160,97.5,112.5,-120,112.5,155,170,-187.5,170,442.5
1,Joesiah Rogers,M,SBD,M-JV,83,Single-ply,2004,Woodward Academy,IA,82.1,175,192.5,-202.5,192.5,117.5,127.5,137.5,137.5,180,195,-210,195,525
2,Justin Hendricks,M,SBD,M-JV,83,Single-ply,2002,,WI,81.1,157.5,167.5,172.5,172.5,90,95,100,100,175,182.5,190,190,462.5
3,Jose Elias,M,SBD,M-JV,83,Single-ply,2001,Woodward Academy,IA,80.6,140,-157.5,-167.5,140,95,107.5,117.5,117.5,165,-185,-185,165,422.5
1,Cory Wood,M,SBD,M-JV,93,Single-ply,2001,,WI,87.8,192.5,205,215,215,97.5,-102.5,102.5,102.5,190,195,200,200,517.5
2,Isaac Franzke,M,SBD,M-JV,93,Single-ply,2002,Neenah High School,WI,89.3,172.5,187.5,197.5,197.5,90,95,112.5,112.5,167.5,177.5,187.5,187.5,497.5
3,Isaiah Banford,M,SBD,M-JV,93,Single-ply,2001,Woodward Academy,IA,90.8,170,-192.5,-192.5,170,97.5,112.5,122.5,122.5,182.5,200,-207.5,200,492.5
1,John Locks,M,SBD,M-JV,105,Single-ply,2001,Woodward Academy,IA,101.3,205,225,-240,225,112.5,122.5,130,130,217.5,240,-250,240,595
2,Robert Swenson,M,SBD,M-JV,105,Single-ply,2003,Necedah High School,WI,97.7,167.5,177.5,187.5,187.5,92.5,100,-105,100,-147.5,147.5,160,160,447.5
1,Mason Erickson,M,SBD,M-JV,120,Single-ply,2001,,LA,114.3,170,-180,185,185,97.5,107.5,115,115,195,210,-215,210,510
2,Carter Alton,M,SBD,M-JV,120,Single-ply,2002,,WI,111.1,187.5,-197.5,197.5,197.5,102.5,107.5,110,110,-162.5,162.5,172.5,172.5,480
3,Arnulfo Cordero,M,SBD,M-JV,120,Single-ply,2001,Woodward Academy,IA,118,142.5,-170,-170,142.5,112.5,127.5,-135,127.5,142.5,155,165,165,435
1,Jakhi Webb,M,SBD,M-JV,120+,Single-ply,2001,Woodward Academy,IA,122.3,142.5,170,177.5,177.5,90,97.5,105,105,185,202.5,-215,202.5,485
1,Trai Chatman,M,SBD,M-V,53,Single-ply,1998,Covington High school,LA,52.7,-190,190,-200,190,132.5,150,-162.5,150,185,200,-230,200,540
2,Brayden Londerville,M,SBD,M-V,53,Single-ply,2002,Neenah High School,WI,52.6,127.5,137.5,142.5,142.5,60,65,-70,65,150,160,167.5,167.5,375
3,Connor Oviedo,M,SBD,M-V,53,Single-ply,2000,,LA,52.6,125,137.5,-140,137.5,-82.5,82.5,85,85,135,142.5,150,150,372.5
4,Jonathan Vidrine,M,SBD,M-V,53,Single-ply,2001,Covington High school,LA,52.9,130,137.5,-150,137.5,82.5,95,-102.5,95,120,130,-137.5,130,362.5
5,Lex Frahm,M,SBD,M-V,53,Single-ply,2002,Neenah High School,WI,52.1,107.5,112.5,117.5,117.5,57.5,62.5,65,65,122.5,130,140,140,322.5
1,CJ Shuford,M,SBD,M-V,59,Single-ply,2002,Abbeville,LA,56.6,172.5,190,197.5,197.5,110,117.5,125,125,172.5,197.5,205,205,527.5
2,Logan Pennington,M,SBD,M-V,59,Single-ply,2000,Covington High school,LA,58.2,172.5,182.5,192.5,192.5,100,112.5,117.5,117.5,180,-197.5,-220,180,490
3,Mason Impastato,M,SBD,M-V,59,Single-ply,2001,,LA,58.9,167.5,-192.5,-192.5,167.5,92.5,100,-105,100,182.5,192.5,-197.5,192.5,460
4,Rodolfo Serna,M,SBD,M-V,59,Single-ply,2000,Cudahy High School,WI,57.3,167.5,170,175,175,85,-92.5,92.5,92.5,175,182.5,-185,182.5,450
5,Nicholas Johnson #1,M,SBD,M-V,59,Single-ply,2001,Neenah High School,WI,57.5,150,160,167.5,167.5,72.5,77.5,-85,77.5,165,175,-182.5,175,420
6,Kyle Clark #1,M,SBD,M-V,59,Single-ply,2002,,LA,58,-127.5,130,145,145,82.5,87.5,-92.5,87.5,155,170,-175,170,402.5
7,Nicholas Cordeiro,M,SBD,M-V,59,Single-ply,2001,,MA,57.5,140,150,-155,150,82.5,87.5,90,90,155,-162.5,-162.5,155,395
8,Justin Rife,M,SBD,M-V,59,Single-ply,2000,,WI,57.5,135,-147.5,-147.5,135,-77.5,80,87.5,87.5,157.5,-170,-170,157.5,380
9,Thomas Schell,M,SBD,M-V,59,Single-ply,2001,,WI,55.5,-142.5,142.5,150,150,77.5,82.5,-85,82.5,142.5,-157.5,-157.5,142.5,375
10,Nicholas Parks,M,SBD,M-V,59,Single-ply,2000,,LA,56.3,125,132.5,140,140,82.5,87.5,92.5,92.5,130,137.5,-140,137.5,370
1,Ian West,M,SBD,M-V,66,Single-ply,1999,Hershey High School,PA,65.2,197.5,202.5,-205,202.5,120,-125,-125,120,200,210,212.5,212.5,535
2,Philip Nicaud,M,SBD,M-V,66,Single-ply,2000,,LA,65.4,-182.5,182.5,-195,182.5,132.5,-140,140,140,190,202.5,210,210,532.5
3,Miles Priefer,M,SBD,M-V,66,Single-ply,1999,Waterford Union High School,WI,65,192.5,205,212.5,212.5,117.5,127.5,-135,127.5,162.5,175,185,185,525
4,Peter Piparo,M,SBD,M-V,66,Single-ply,2000,Cudahy High School,WI,65.1,195,200,-205,200,-85,85,92.5,92.5,195,207.5,-212.5,207.5,500
5,Timori Shipley,M,SBD,M-V,66,Single-ply,2000,Abbeville,LA,60.9,162.5,172.5,182.5,182.5,95,107.5,112.5,112.5,-177.5,177.5,192.5,192.5,487.5
6,Joseph Vidrine,M,SBD,M-V,66,Single-ply,1999,Covington High school,LA,61.3,-162.5,-162.5,162.5,162.5,112.5,120,125,125,165,175,-187.5,175,462.5
7,Nelson Comeaux,M,SBD,M-V,66,Single-ply,1998,Abbeville,LA,61.7,137.5,152.5,-160,152.5,97.5,107.5,115,115,147.5,167.5,175,175,442.5
1,Dante Citizen,M,SBD,M-V,74,Single-ply,1999,Abbeville,LA,73.5,227.5,-250,250,250,162.5,172.5,180,180,232.5,252.5,272.5,272.5,702.5
2,Mitchell Gibson,M,SBD,M-V,74,Single-ply,1999,,WI,72.8,255,267.5,272.5,272.5,125,-127.5,-127.5,125,245,252.5,255,255,652.5
3,Dawson Stroik,M,SBD,M-V,74,Single-ply,2001,,WI,72.4,-245,245,-257.5,245,-142.5,142.5,150,150,225,235,242.5,242.5,637.5
4,David Ricalde,M,SBD,M-V,74,Single-ply,1999,,LA,73.6,215,235,-245,235,132.5,137.5,-140,137.5,215,237.5,-245,237.5,610
5,Dillon Gitz,M,SBD,M-V,74,Single-ply,1999,Covington High school,LA,73.3,210,220,232.5,232.5,110,117.5,-125,117.5,215,222.5,-260,222.5,572.5
6,Christian Alvarez #4,M,SBD,M-V,74,Single-ply,2002,Abbeville,LA,73.4,187.5,202.5,210,210,122.5,135,145,145,197.5,217.5,-230,217.5,572.5
7,Nathaniel Ramsey,M,SBD,M-V,74,Single-ply,2000,,WI,72,195,207.5,217.5,217.5,97.5,-105,105,105,207.5,220,232.5,232.5,555
8,Brison Adams,M,SBD,M-V,74,Single-ply,2000,Covington High school,LA,72.2,170,182.5,195,195,135,147.5,157.5,157.5,182.5,197.5,-210,197.5,550
9,Zebadiah Johnson,M,SBD,M-V,74,Single-ply,2000,,SD,72.8,205,-215,-215,205,125,132.5,137.5,137.5,185,197.5,-205,197.5,540
10,Kyllian Harper,M,SBD,M-V,74,Single-ply,2000,Hershey High School,PA,73.2,-195,202.5,-215,202.5,117.5,125,-127.5,125,185,-202.5,-205,185,512.5
1,Noah Johnson #1,M,SBD,M-V,83,Single-ply,2000,,WI,82,270,280,290,290,142.5,152.5,160,160,277.5,287.5,-297.5,287.5,737.5
2,Sam Bassan,M,SBD,M-V,83,Single-ply,2001,,WI,80.8,267.5,-277.5,277.5,277.5,145,150,155,155,267.5,-280,-280,267.5,700
3,Braden Doucet,M,SBD,M-V,83,Single-ply,2000,,LA,82.2,235,252.5,-262.5,252.5,145,152.5,-160,152.5,222.5,237.5,252.5,252.5,657.5
4,James Schultz,M,SBD,M-V,83,Single-ply,2000,,WI,77.7,215,222.5,242.5,242.5,137.5,-150,155,155,227.5,245,-257.5,245,642.5
5,Ral''Vante Crandle,M,SBD,M-V,83,Single-ply,1999,Covington High school,LA,80,210,220,227.5,227.5,120,130,135,135,240,260,-282.5,260,622.5
6,Thomas Dugan,M,SBD,M-V,83,Single-ply,1999,,LA,82.5,215,227.5,-237.5,227.5,165,-170,170,170,207.5,225,-232.5,225,622.5
7,Eric Gonzalez #4,M,SBD,M-V,83,Single-ply,1999,Carrizo Springs High School,TX,81.2,207.5,222.5,-230,222.5,112.5,120,125,125,-210,222.5,230,230,577.5
8,Case Riehl,M,SBD,M-V,83,Single-ply,2000,,WI,82.9,-205,210,222.5,222.5,115,125,137.5,137.5,200,215,-227.5,215,575
9,Jeremy Celino,M,SBD,M-V,83,Single-ply,2000,,LA,76.1,-187.5,187.5,-192.5,187.5,127.5,132.5,137.5,137.5,220,-230,230,230,555
10,Addison Gaspard,M,SBD,M-V,83,Single-ply,2001,Abbeville,LA,82.2,182.5,192.5,202.5,202.5,112.5,122.5,127.5,127.5,195,215,-230,215,545
1,Thomas Annello III,M,SBD,M-V,93,Single-ply,1999,Covington High school,LA,84.3,-250,250,265,265,190,202.5,210,210,210,222.5,232.5,232.5,707.5
2,Luis Perales,M,SBD,M-V,93,Single-ply,1999,Carrizo Springs High School,TX,92.3,235,250,-255,250,195,207.5,215,215,227.5,-242.5,-245,227.5,692.5
3,Shane Kierstyn,M,SBD,M-V,93,Single-ply,2001,,WI,89.2,240,245,250,250,145,-152.5,152.5,152.5,255,272.5,-285,272.5,675
4,Allen Pennington,M,SBD,M-V,93,Single-ply,2000,Covington High school,LA,89.1,227.5,240,252.5,252.5,145,155,165,165,215,227.5,232.5,232.5,650
5,Zachary Tesch,M,SBD,M-V,93,Single-ply,2000,,WI,88.8,247.5,257.5,-265,257.5,-142.5,142.5,147.5,147.5,222.5,-232.5,232.5,232.5,637.5
6,Jerimyah Overton,M,SBD,M-V,93,Single-ply,2000,Abbeville,LA,91.3,217.5,237.5,250,250,150,165,172.5,172.5,175,195,207.5,207.5,630
7,Austin Payne,M,SBD,M-V,93,Single-ply,2000,,WI,90.4,222.5,-237.5,237.5,237.5,100,-127.5,127.5,127.5,245,260,-275,260,625
8,Nicholas Purcell,M,SBD,M-V,93,Single-ply,2001,,WI,90.4,210,225,237.5,237.5,-115,120,127.5,127.5,217.5,230,240,240,605
9,Devoni Albritton,M,SBD,M-V,93,Single-ply,2001,,WI,87,215,222.5,232.5,232.5,117.5,125,-132.5,125,230,-245,-245,230,587.5
10,Dylan Wysocky,M,SBD,M-V,93,Single-ply,2001,,WI,91.2,205,-222.5,222.5,222.5,-130,130,-137.5,130,215,-227.5,227.5,227.5,580
DQ,Joshua Edwards,M,SBD,M-V,93,Single-ply,1972,,WI,84.4,-240,-250,-250,,102.5,107.5,115,115,215,227.5,-232.5,227.5,
DQ,Hunter Burlingame,M,SBD,M-V,93,Single-ply,2000,Elk Mound High School,WI,91.6,-250,-250,-250,,117.5,-125,125,125,230,-247.5,-247.5,230,
1,Wesley Brown,M,SBD,M-V,105,Single-ply,2000,,LA,103.3,290,-305,305,305,155,165,172.5,172.5,265,275,-290,275,752.5
2,Mario Mendoza,M,SBD,M-V,105,Single-ply,2000,Carrizo Springs High School,TX,96.1,-252.5,252.5,-267.5,252.5,165,175,-180,175,215,217.5,-220,217.5,645
3,Marcos Chavez Jr,M,SBD,M-V,105,Single-ply,1999,,WI,101.4,215,222.5,-230,222.5,110,-115,115,115,222.5,232.5,237.5,237.5,575
4,Cedric Laird Jr,M,SBD,M-V,105,Single-ply,2002,Covington High school,LA,94.4,220,235,245,245,135,145,155,155,-155,155,-185,155,555
1,David Still,M,SBD,M-V,120,Single-ply,1999,Hershey High School,PA,119.4,260,282.5,-292.5,282.5,142.5,157.5,165,165,225,247.5,260,260,707.5
2,Owen Rozumalski,M,SBD,M-V,120,Single-ply,2000,,WI,115.9,-260,260,275,275,167.5,177.5,182.5,182.5,232.5,237.5,247.5,247.5,705
3,Andrew Nguyen #2,M,SBD,M-V,120,Single-ply,2000,Abbeville,LA,111,240,262.5,-272.5,262.5,137.5,152.5,160,160,230,267.5,-285,267.5,690
4,Alex Ochs,M,SBD,M-V,120,Single-ply,2001,Waterford Union High School,WI,115.8,230,-242.5,250,250,165,175,182.5,182.5,207.5,215,-222.5,215,647.5
5,Nicholas Coca,M,SBD,M-V,120,Single-ply,2000,,WI,117.7,-242.5,-242.5,242.5,242.5,-142.5,142.5,150,150,242.5,250,-257.5,250,642.5
6,Zachery Schaeve,M,SBD,M-V,120,Single-ply,1999,,WI,114.7,242.5,-252.5,-252.5,242.5,135,142.5,-145,142.5,237.5,247.5,-257.5,247.5,632.5
DQ,Blake Ensz,M,SBD,M-V,120,Single-ply,1999,,SD,117.5,-292.5,-302.5,-310,,195,-200,-200,195,212.5,-220,220,220,
1,Andrew Sien,M,SBD,M-V,120+,Single-ply,1999,,MD,150.1,297.5,-310,310,310,175,182.5,-190,182.5,230,240,-247.5,240,732.5
2,Oscalito Arroyo,M,SBD,M-V,120+,Single-ply,1999,Cudahy High School,WI,150.6,312.5,-332.5,335,335,142.5,150,160,160,205,212.5,-217.5,212.5,707.5
3,Niko Iglesias,M,SBD,M-V,120+,Single-ply,2000,Mauston High School,WI,160.1,257.5,-272.5,272.5,272.5,147.5,155,160,160,250,262.5,-277.5,262.5,695
4,Spencer Herrick,M,SBD,M-V,120+,Single-ply,2000,,WI,139.5,250,267.5,282.5,282.5,-142.5,145,155,155,227.5,240,245,245,682.5
5,Cody Turner,M,SBD,M-V,120+,Single-ply,1999,Covington High school,LA,122.6,230,240,-252.5,240,185,-197.5,-197.5,185,207.5,212.5,252.5,252.5,677.5
1,Vincent Kenyon,M,SBD,MR-JV,53,Raw,2002,Ionia High School,MI,52.6,-100,105,115,115,50,57.5,65,65,122.5,132.5,-147.5,132.5,312.5
2,Billy Tay,M,SBD,MR-JV,53,Raw,2003,Ridgeview,IL,47.6,85,-92.5,-92.5,85,55,60,-62.5,60,117.5,132.5,-135,132.5,277.5
3,Dylan Daly-Schreiner,M,SBD,MR-JV,53,Raw,2002,,WI,51.1,65,72.5,-82.5,72.5,37.5,42.5,45,45,92.5,100,110,110,227.5
1,Coby Windle,M,SBD,MR-JV,59,Raw,2002,Ridgeview,IL,57.9,-100,110,115,115,65,70,75,75,142.5,152.5,155,155,345
2,Anthony Hirst,M,SBD,MR-JV,59,Raw,2001,Saint John's High School,MA,58.1,120,130,-140,130,70,75,77.5,77.5,120,-127.5,-127.5,120,327.5
3,Blake Burlingame,M,SBD,MR-JV,59,Raw,2002,Elk Mound High School,WI,57.4,90,95,-100,95,55,57.5,60,60,127.5,135,145,145,300
4,Vaughn Zwiefelhofer,M,SBD,MR-JV,59,Raw,2003,,WI,57.4,92.5,97.5,100,100,57.5,62.5,-67.5,62.5,120,127.5,135,135,297.5
5,Logan Holmes-Gertner,M,SBD,MR-JV,59,Raw,2002,Kasson-Mantorville High School,MN,55.6,70,77.5,90,90,55,65,67.5,67.5,112.5,127.5,137.5,137.5,295
1,Jack Bond,M,SBD,MR-JV,66,Raw,2001,,WI,64.8,115,122.5,127.5,127.5,82.5,85,-90,85,147.5,160,167.5,167.5,380
2,Logan Zyduck,M,SBD,MR-JV,66,Raw,2002,,WI,65.6,127.5,135,-145,135,70,77.5,82.5,82.5,142.5,152.5,157.5,157.5,375
3,Alex Myszewski,M,SBD,MR-JV,66,Raw,2002,,WI,64.2,102.5,112.5,125,125,62.5,70,-75,70,152.5,160,-177.5,160,355
4,Evan Bjorge,M,SBD,MR-JV,66,Raw,2002,Waterford Union High School,WI,64.9,122.5,127.5,130,130,65,67.5,-70,67.5,152.5,-157.5,157.5,157.5,355
5,James Devereux,M,SBD,MR-JV,66,Raw,2001,,PA,62.4,107.5,122.5,130,130,60,67.5,-70,67.5,142.5,155,-160,155,352.5
6,Markos Cash,M,SBD,MR-JV,66,Raw,2002,,WI,64,110,115,125,125,75,80,-85,80,130,140,145,145,350
7,William Breunig,M,SBD,MR-JV,66,Raw,2002,Mauston High School,WI,61.8,100,107.5,110,110,67.5,72.5,77.5,77.5,137.5,145,155,155,342.5
8,Hunter Coleman,M,SBD,MR-JV,66,Raw,2002,,WY,62.8,100,112.5,-117.5,112.5,65,72.5,75,75,140,-145,145,145,332.5
9,Maysen Best,M,SBD,MR-JV,66,Raw,2002,,WI,64.1,110,120,122.5,122.5,67.5,-72.5,-72.5,67.5,125,132.5,137.5,137.5,327.5
10,Troy Burkert,M,SBD,MR-JV,66,Raw,2003,,WI,65.3,110,115,120,120,62.5,65,-67.5,65,130,142.5,-145,142.5,327.5
11,Colton Tay,M,SBD,MR-JV,59,Raw,2001,Ridgeview,IL,59,92.5,100,-102.5,100,57.5,60,65,65,142.5,152.5,-155,152.5,317.5
12,Roger Daniels,M,SBD,MR-JV,66,Raw,2002,Necedah High School,WI,63.2,92.5,97.5,-102.5,97.5,50,55,60,60,135,140,155,155,312.5
13,Sean Kane,M,SBD,MR-JV,66,Raw,2002,,PA,64.3,105,117.5,-120,117.5,57.5,65,67.5,67.5,125,-132.5,-132.5,125,310
14,Payton Bendickson,M,SBD,MR-JV,66,Raw,2002,Kasson-Mantorville High School,MN,63.8,-90,97.5,102.5,102.5,50,57.5,62.5,62.5,90,112.5,-117.5,112.5,277.5
DQ,Dylon Noon,M,SBD,MR-JV,66,Raw,2001,,GA,63.2,125,132.5,-137.5,132.5,-90,-90,-90,,-160,-160,-160,,
1,Bryce Henrichs,M,SBD,MR-JV,74,Raw,2003,Waterford Union High School,WI,70,135,142.5,152.5,152.5,85,-87.5,-87.5,85,160,172.5,177.5,177.5,415
2,Ethan Hahlbeck,M,SBD,MR-JV,74,Raw,2002,,WI,68.7,145,155,-160,155,77.5,82.5,87.5,87.5,155,165,-170,165,407.5
3,Ari Kutin,M,SBD,MR-JV,74,Raw,2003,,NJ,72.9,115,127.5,135,135,77.5,85,-92.5,85,160,172.5,182.5,182.5,402.5
4,Mitchell Belland,M,SBD,MR-JV,74,Raw,2001,,MN,68.6,137.5,145,150,150,80,85,-90,85,152.5,-160,-160,152.5,387.5
5,Andrew Cargill #1,M,SBD,MR-JV,74,Raw,2002,,GA,73.1,110,125,-130,125,-82.5,87.5,-92.5,87.5,155,175,-185,175,387.5
6,Braeden Bowman,M,SBD,MR-JV,74,Raw,2001,,WI,71.4,122.5,127.5,130,130,77.5,82.5,-85,82.5,152.5,165,170,170,382.5
7,Ethan Ringold,M,SBD,MR-JV,74,Raw,2002,,MN,73.1,102.5,110,115,115,-65,75,-77.5,75,142.5,150,157.5,157.5,347.5
1,Jonah Picasso,M,SBD,MR-JV,83,Raw,2001,,SD,77.6,165,-172.5,-172.5,165,80,82.5,87.5,87.5,170,175,-182.5,175,427.5
2,Jordan Ankney,M,SBD,MR-JV,83,Raw,2002,,IN,78.6,145,160,172.5,172.5,75,80,82.5,82.5,147.5,165,-170,165,420
3,Cody Sisaket,M,SBD,MR-JV,83,Raw,2001,,MN,78,142.5,147.5,155,155,87.5,-92.5,-92.5,87.5,155,162.5,170,170,412.5
4,Brandon Easterly,M,SBD,MR-JV,83,Raw,2001,,WI,82.3,135,142.5,-150,142.5,70,77.5,82.5,82.5,165,172.5,182.5,182.5,407.5
5,Benjamin Roussopoulos,M,SBD,MR-JV,83,Raw,2002,,MN,79.5,-112.5,115,122.5,122.5,82.5,-85,-85,82.5,157.5,165,172.5,172.5,377.5
6,Liam Herrick,M,SBD,MR-JV,83,Raw,2002,,WI,80.3,102.5,115,-120,115,72.5,77.5,-80,77.5,122.5,130,142.5,142.5,335
DQ,Eric Oliphant,M,SBD,MR-JV,83,Raw,2002,,MN,81.6,-150,-150,-157.5,,85,-87.5,-87.5,85,155,165,170,170,
1,Reid Koeppel,M,SBD,MR-JV,93,Raw,2002,Neenah High School,WI,90.9,175,187.5,-200,187.5,95,105,-110,105,175,197.5,205,205,497.5
2,Quinn Parker,M,SBD,MR-JV,93,Raw,2002,Neenah High School,WI,90.5,165,175,-185,175,90,97.5,-100,97.5,175,200,-217.5,200,472.5
3,Brett Deschler,M,SBD,MR-JV,93,Raw,2001,Waterford Union High School,WI,92.6,150,157.5,-165,157.5,92.5,97.5,102.5,102.5,182.5,-190,-215,182.5,442.5
4,Samuel Brouillet,M,SBD,MR-JV,93,Raw,2002,,WI,90.9,102.5,117.5,-122.5,117.5,65,67.5,70,70,125,-137.5,137.5,137.5,325
1,Reese Worden,M,SBD,MR-JV,105,Raw,2001,,MI,102.1,207.5,227.5,237.5,237.5,120,132.5,140,140,225,252.5,-272.5,252.5,630
2,Mac Strand,M,SBD,MR-JV,105,Raw,2002,,WI,94.3,175,185,195,195,85,92.5,-97.5,92.5,210,225,-235,225,512.5
3,Robert Conde,M,SBD,MR-JV,105,Raw,2002,,WI,101.6,167.5,180,-190,180,105,112.5,117.5,117.5,192.5,212.5,-227.5,212.5,510
4,Patrick Maloney,M,SBD,MR-JV,105,Raw,2002,,PA,101.1,167.5,175,185,185,85,92.5,95,95,162.5,180,187.5,187.5,467.5
5,Even Mahlum,M,SBD,MR-JV,105,Raw,2002,,WI,102.1,150,160,165,165,87.5,97.5,102.5,102.5,175,-182.5,187.5,187.5,455
6,Alex Ammerman,M,SBD,MR-JV,105,Raw,2003,Ridgeview,IL,103.7,150,165,-167.5,165,92.5,97.5,-100,97.5,192.5,-210,-210,192.5,455
7,Calvin Harris,M,SBD,MR-JV,105,Raw,2002,,MN,101,-140,142.5,-147.5,142.5,-92.5,97.5,-100,97.5,142.5,152.5,-160,152.5,392.5
1,Jackson Wemette,M,SBD,MR-JV,120,Raw,2001,,WI,106,175,180,185,185,92.5,97.5,105,105,202.5,210,-215,210,500
2,Jared Litty,M,SBD,MR-JV,120,Raw,2003,Mauston High School,WI,116.9,125,137.5,142.5,142.5,87.5,95,97.5,97.5,162.5,175,180,180,420
3,Cole Bjorge,M,SBD,MR-JV,120,Raw,2002,Waterford Union High School,WI,109.3,-142.5,142.5,147.5,147.5,85,-90,-90,85,175,-185,-187.5,175,407.5
4,Devin Bennett,M,SBD,MR-JV,120,Raw,2001,Mauston High School,WI,108.8,155,-160,-160,155,65,67.5,72.5,72.5,162.5,-175,-175,162.5,390
1,Trevor Pye,M,SBD,MR-JV,120+,Raw,2001,Waterford Union High School,WI,130.6,220,227.5,-232.5,227.5,105,110,-115,110,185,190,210,210,547.5
2,Corbin Weaver,M,SBD,MR-JV,120+,Raw,2002,,TN,133.9,-170,-175,175,175,105,110,117.5,117.5,230,242.5,255,255,547.5
1,Bodie LaCoe,M,SBD,MR-V,53,Raw,2003,,PA,51.1,120,135,140,140,70,77.5,-82.5,77.5,170,182.5,190,190,407.5
2,Martavious Strowder,M,SBD,MR-V,53,Raw,2002,Lake Cormorant High School,MS,51.5,125,-130,-130,125,75,80,-82.5,80,130,-140,-140,130,335
3,Brian Bauch,M,SBD,MR-V,53,Raw,2000,Necedah High School,WI,50.4,107.5,115,-117.5,115,60,62.5,-67.5,62.5,122.5,130,140,140,317.5
4,Roydetric Harris,M,SBD,MR-V,53,Raw,2003,Lake Cormorant High School,MS,48.3,110,-120,-125,110,72.5,77.5,80,80,110,117.5,125,125,315
5,Kylil Barnes,M,SBD,MR-V,53,Raw,2000,Glen Mills Schools,PA,51.8,95,-102.5,-105,95,65,72.5,-77.5,72.5,100,122.5,132.5,132.5,300
6,Forest Thoreson,M,SBD,MR-V,53,Raw,2001,,WI,52.8,95,100,102.5,102.5,60,67.5,-72.5,67.5,130,-137.5,-145,130,300
7,Lane Lee,M,SBD,MR-V,53,Raw,2002,Elk Mound High School,WI,52.3,87.5,95,100,100,50,-52.5,-52.5,50,120,125,130,130,280
1,Cordarius Harris,M,SBD,MR-V,59,Raw,2000,Lake Cormorant High School,MS,56.8,-152.5,-160,160,160,107.5,112.5,120,120,160,175,-180,175,455
2,Sebastian Ortiz,M,SBD,MR-V,59,Raw,2000,,IL,58.4,140,145,150,150,100,102.5,-105,102.5,170,175,-180,175,427.5
3,Kolby Pierce,M,SBD,MR-V,59,Raw,2001,Ionia High School,MI,56.3,135,-140,140,140,87.5,-92.5,92.5,92.5,135,140,145,145,377.5
4,Daveon Woods,M,SBD,MR-V,59,Raw,2001,Glen Mills Schools,PA,58.3,102.5,112.5,115,115,60,67.5,77.5,77.5,145,152.5,162.5,162.5,355
5,Jayson Schraufnagel,M,SBD,MR-V,59,Raw,2001,Neenah High School,WI,55.4,95,105,112.5,112.5,72.5,-77.5,77.5,77.5,130,140,150,150,340
6,Declan Gubrud,M,SBD,MR-V,59,Raw,2001,,WI,58.9,112.5,117.5,120,120,75,80,85,85,125,130,135,135,340
7,Dylan Gostomski,M,SBD,MR-V,59,Raw,2001,Cudahy High School,WI,57.2,90,102.5,107.5,107.5,62.5,70,77.5,77.5,110,137.5,145,145,330
8,Jerric Blair,M,SBD,MR-V,59,Raw,2000,,WI,57.3,105,110,-115,110,62.5,67.5,70,70,140,147.5,-152.5,147.5,327.5
9,Maurice Limboc,M,SBD,MR-V,59,Raw,2000,Glen Mills Schools,PA,58,85,-95,95,95,60,67.5,-77.5,67.5,145,152.5,162.5,162.5,325
10,Jorden Anderson,M,SBD,MR-V,59,Raw,1999,,SD,58,-107.5,107.5,-115,107.5,62.5,-67.5,-67.5,62.5,140,142.5,-150,142.5,312.5
11,Mason Stangret,M,SBD,MR-V,59,Raw,2001,,WI,57.9,-87.5,95,-97.5,95,72.5,77.5,-80,77.5,117.5,122.5,132.5,132.5,305
12,Cameron Fileccia,M,SBD,MR-V,59,Raw,2001,Calvary Baptist Academy,LA,55.9,85,-97.5,97.5,97.5,57.5,60,-65,60,130,-137.5,137.5,137.5,295
13,Bobby Requena,M,SBD,MR-V,59,Raw,2001,Ridgeview,IL,57.1,95,105,110,110,60,62.5,65,65,117.5,120,-130,120,295
14,Derrick Hess,M,SBD,MR-V,59,Raw,2000,Waterford Union High School,WI,57.2,102.5,-105,-105,102.5,67.5,70,-75,70,112.5,122.5,-137.5,122.5,295
15,Dylan Hanson,M,SBD,MR-V,59,Raw,2001,Elk Mound High School,WI,55.9,75,85,90,90,-52.5,52.5,-57.5,52.5,112.5,120,127.5,127.5,270
1,Jonas Kasten,M,SBD,MR-V,66,Raw,2000,Neenah High School,WI,63.3,137.5,150,-160,150,90,97.5,105,105,182.5,195,-207.5,195,450
2,Brice Mcclay,M,SBD,MR-V,66,Raw,1999,,WI,65.2,130,135,-142.5,135,80,85,-90,85,185,195,202.5,202.5,422.5
3,Dylan Hill,M,SBD,MR-V,66,Raw,2000,Ionia High School,MI,64.4,135,145,155,155,90,97.5,100,100,165,-175,-175,165,420
4,Logan Forburger,M,SBD,MR-V,66,Raw,2000,,IA,64.9,130,137.5,145,145,82.5,87.5,-90,87.5,167.5,177.5,187.5,187.5,420
5,Cooper Kastenschmidt,M,SBD,MR-V,66,Raw,2001,,WI,64.6,137.5,142.5,-147.5,142.5,-70,70,-72.5,70,165,175,182.5,182.5,395
6,Sergio Jimenez,M,SBD,MR-V,66,Raw,2001,,WI,59.1,140,145,-147.5,145,87.5,90,-92.5,90,142.5,147.5,-152.5,147.5,382.5
7,Devin Lang,M,SBD,MR-V,66,Raw,2001,,WI,65.1,117.5,122.5,-127.5,122.5,-70,70,-75,70,165,172.5,180,180,372.5
8,Kolton Fiedler,M,SBD,MR-V,66,Raw,1999,,WI,65.2,117.5,127.5,135,135,72.5,-82.5,-82.5,72.5,-165,165,-185,165,372.5
9,R'Keavis Morrison,M,SBD,MR-V,66,Raw,2002,Glen Mills Schools,PA,66,95,100,110,110,70,80,-87.5,80,152.5,165,175,175,365
10,Alexander Gutierrez #1,M,SBD,MR-V,66,Raw,2000,Mauston High School,WI,61.4,107.5,-117.5,120,120,62.5,67.5,70,70,157.5,-162.5,-162.5,157.5,347.5
11,Ike Kramschuster,M,SBD,MR-V,66,Raw,1999,,WI,61.6,102.5,107.5,-112.5,107.5,65,70,72.5,72.5,147.5,155,165,165,345
12,Alex Sackett,M,SBD,MR-V,66,Raw,2002,,WI,62.9,110,120,127.5,127.5,65,75,77.5,77.5,125,-132.5,140,140,345
13,Darren Reinagle,M,SBD,MR-V,66,Raw,2001,Ridgeview,IL,63.6,95,110,-120,110,67.5,-70,70,70,150,162.5,165,165,345
14,Alexander McElmury,M,SBD,MR-V,66,Raw,1999,Kasson-Mantorville High School,MN,63.5,107.5,-115,-115,107.5,62.5,70,72.5,72.5,160,-170,-170,160,340
15,Bryce Ploeckelman,M,SBD,MR-V,59,Raw,2002,Elk Mound High School,WI,59,102.5,107.5,-110,107.5,57.5,-62.5,-62.5,57.5,132.5,140,145,145,310
16,Thomas Benz,M,SBD,MR-V,66,Raw,2000,,SD,65.1,102.5,-110,-110,102.5,60,65,-67.5,65,142.5,-150,-160,142.5,310
DQ,Roderick Morton Jr,M,SBD,MR-V,66,Raw,2001,Lake Cormorant High School,MS,64.3,-142.5,-142.5,-142.5,,75,77.5,-82.5,77.5,200,-215,-220,200,
DQ,Colton Steyer,M,SBD,MR-V,66,Raw,2001,,WI,66,155,-165,-165,155,-110,-117.5,-117.5,,,,,,
1,Jalen Jordan,M,SBD,MR-V,74,Raw,2000,Lake Cormorant High School,MS,73.85,187.5,-197.5,197.5,197.5,102.5,107.5,112.5,112.5,-232.5,240,250,250,560
2,Spencer Butke,M,SBD,MR-V,74,Raw,2000,Neenah High School,WI,72.5,190,202.5,212.5,212.5,95,107.5,112.5,112.5,220,232.5,-240,232.5,557.5
3,Justin Choy,M,SBD,MR-V,74,Raw,1999,,WI,73.8,192.5,202.5,-207.5,202.5,110,117.5,-120,117.5,205,215,-230,215,535
4,Daniel Byers,M,SBD,MR-V,74,Raw,2000,Saint John's High School,MA,73.15,175,182.5,192.5,192.5,120,127.5,130,130,180,200,-212.5,200,522.5
5,Karter Brachear,M,SBD,MR-V,74,Raw,1999,,IL,73.45,150,160,165,165,105,-110,-110,105,200,210,-215,210,480
6,Eric Schroeder,M,SBD,MR-V,74,Raw,2000,,IN,73.65,160,175,182.5,182.5,90,95,100,100,167.5,182.5,-192.5,182.5,465
7,Logan Hayman,M,SBD,MR-V,74,Raw,2001,,WI,72.7,152.5,-165,165,165,95,100,-102.5,100,187.5,-200,-200,187.5,452.5
8,Jonathan Boehnlein,M,SBD,MR-V,74,Raw,2001,,WI,72.9,137.5,152.5,165,165,85,95,100,100,167.5,180,187.5,187.5,452.5
9,Jontay Poole,M,SBD,MR-V,74,Raw,2001,Glen Mills Schools,PA,73.5,137.5,150,155,155,92.5,102.5,-107.5,102.5,182.5,195,-210,195,452.5
10,Austin Koch,M,SBD,MR-V,74,Raw,2000,,WI,72.2,145,155,157.5,157.5,97.5,-100,-100,97.5,190,-192.5,192.5,192.5,447.5
11,Dustin Dziekan,M,SBD,MR-V,74,Raw,1999,,WI,70.1,145,150,155,155,100,107.5,-110,107.5,170,175,182.5,182.5,445
12,Nathan Rather,M,SBD,MR-V,74,Raw,2000,,WI,69.9,147.5,152.5,-160,152.5,90,-95,100,100,177.5,190,-195,190,442.5
13,Kadin Conradt,M,SBD,MR-V,74,Raw,2001,,WI,71,145,-155,160,160,85,92.5,-95,92.5,167.5,187.5,-197.5,187.5,440
14,YuePing Vang,M,SBD,MR-V,74,Raw,2000,Mauston High School,WI,73.25,150,152.5,-155,152.5,87.5,90,92.5,92.5,195,-210,-210,195,440
15,Parker Leisses,M,SBD,MR-V,74,Raw,2000,,WI,70,140,145,-147.5,145,92.5,-97.5,-97.5,92.5,187.5,197.5,-207.5,197.5,435
16,Alex Turner #2,M,SBD,MR-V,74,Raw,2000,,WI,72.95,157.5,-167.5,-167.5,157.5,90,95,97.5,97.5,165,175,-182.5,175,430
17,Trey Zwiefelhofer,M,SBD,MR-V,74,Raw,2000,,WI,73.3,130,135,140,140,85,90,92.5,92.5,180,192.5,-197.5,192.5,425
18,Joel Burkert,M,SBD,MR-V,74,Raw,2000,,WI,70.3,142.5,152.5,157.5,157.5,82.5,85,90,90,170,175,-180,175,422.5
19,Benjamin Carr,M,SBD,MR-V,74,Raw,1999,Saint John's High School,MA,72.8,132.5,137.5,140,140,87.5,95,-100,95,175,182.5,-190,182.5,417.5
20,Andrew Wein,M,SBD,MR-V,74,Raw,2001,,WI,73.4,137.5,142.5,150,150,75,80,87.5,87.5,165,180,-192.5,180,417.5
21,Jayson Brueggeman,M,SBD,MR-V,74,Raw,2001,,WI,73.6,112.5,-132.5,132.5,132.5,72.5,87.5,-92.5,87.5,165,175,190,190,410
22,Kevin Chen,M,SBD,MR-V,74,Raw,2000,,WI,72.9,135,147.5,-155,147.5,-92.5,92.5,-97.5,92.5,152.5,-170,-170,152.5,392.5
DQ,Ethan Kaanta,M,SBD,MR-V,74,Raw,2001,Elk Mound High School,WI,70.6,150,155,157.5,157.5,87.5,92.5,-95,92.5,-160,-160,-160,,
1,Harol Molina,M,SBD,MR-V,83,Raw,2000,,NE,82.2,-182.5,192.5,-197.5,192.5,127.5,135,140,140,215,225,232.5,232.5,565
2,Nicholas Grewe,M,SBD,MR-V,83,Raw,2000,,WI,80.7,185,192.5,-200,192.5,115,127.5,130,130,205,217.5,-230,217.5,540
3,Rick Wilson,M,SBD,MR-V,83,Raw,2000,Ionia High School,MI,81.5,175,187.5,197.5,197.5,112.5,-117.5,117.5,117.5,215,222.5,-227.5,222.5,537.5
4,Dalton Stike,M,SBD,MR-V,83,Raw,2000,,PA,80.8,170,180,190,190,105,112.5,115,115,187.5,215,222.5,222.5,527.5
5,Abdullah Alsulaimawi,M,SBD,MR-V,83,Raw,2000,,SD,81.3,-185,192.5,-205,192.5,107.5,112.5,120,120,200,215,-222.5,215,527.5
6,Anthony Maas,M,SBD,MR-V,83,Raw,2000,,WI,81.7,-180,-182.5,182.5,182.5,105,110,115,115,222.5,-230,-230,222.5,520
7,Paul Boss,M,SBD,MR-V,83,Raw,2000,,WY,75.9,160,165,170,170,120,122.5,-125,122.5,200,205,-207.5,205,497.5
8,Daniel Domenech,M,SBD,MR-V,83,Raw,2000,Mauston High School,WI,81,155,165,170,170,92.5,100,-102.5,100,217.5,227.5,-250,227.5,497.5
9,Jason Walls,M,SBD,MR-V,83,Raw,2000,,WI,79.5,165,175,182.5,182.5,112.5,117.5,-122.5,117.5,165,175,195,195,495
10,Maxwell Bidic,M,SBD,MR-V,83,Raw,2001,,NJ,82,152.5,162.5,170,170,102.5,115,120,120,185,202.5,-217.5,202.5,492.5
11,Connor Mahlum,M,SBD,MR-V,83,Raw,1999,,WI,81.9,162.5,172.5,182.5,182.5,90,95,-102.5,95,-205,205,-227.5,205,482.5
12,Jacob Kundert,M,SBD,MR-V,83,Raw,1999,,WI,80.1,142.5,147.5,160,160,95,102.5,105,105,187.5,200,215,215,480
13,Thomas Van Eperen,M,SBD,MR-V,83,Raw,2001,,WI,79,160,170,175,175,90,-95,-95,90,200,212.5,-215,212.5,477.5
14,Khanief Mcmillan,M,SBD,MR-V,83,Raw,2000,Glen Mills Schools,PA,82,140,155,-175,155,97.5,112.5,-117.5,112.5,175,197.5,207.5,207.5,475
15,Adam Born,M,SBD,MR-V,83,Raw,2001,Ridgeview,IL,77.2,170,180,185,185,92.5,-95,-95,92.5,195,-207.5,-207.5,195,472.5
16,Carter Franson,M,SBD,MR-V,83,Raw,2001,,WI,81.1,147.5,-152.5,-152.5,147.5,-127.5,127.5,-132.5,127.5,-195,-195,195,195,470
17,Aric Jensen,M,SBD,MR-V,83,Raw,1999,Elk Mound High School,WI,80.6,157.5,-165,165,165,102.5,107.5,112.5,112.5,167.5,180,-187.5,180,457.5
18,Luke Lynch,M,SBD,MR-V,83,Raw,2000,,MI,78.1,145,-160,160,160,87.5,100,102.5,102.5,180,-192.5,192.5,192.5,455
19,Ethan Rausch,M,SBD,MR-V,83,Raw,2001,,SD,80.2,165,-172.5,-182.5,165,105,110,-117.5,110,155,-167.5,167.5,167.5,442.5
20,Jamario Harris,M,SBD,MR-V,83,Raw,2002,Lake Cormorant High School,MS,78.7,142.5,150,155,155,85,92.5,-107.5,92.5,155,167.5,-182.5,167.5,415
DQ,Jack Faulkner,M,SBD,MR-V,83,Raw,2000,Ionia High School,MI,78.4,-160,-160,-160,,82.5,87.5,-92.5,87.5,-210,-210,-210,,
DQ,Hunter Koller,M,SBD,MR-V,83,Raw,2000,,IL,80.3,-142.5,-147.5,-155,,115,-125,-125,115,192.5,200,-205,200,
DQ,Tanner Carver,M,SBD,MR-V,83,Raw,2000,,WI,82.5,162.5,175,177.5,177.5,95,97.5,-100,97.5,-215,-215,-215,,
1,Matthew Weisberg,M,SBD,MR-V,93,Raw,1999,,PA,89,250,260,-275,260,152.5,-160,-160,152.5,280,290,-297.5,290,702.5
2,Zachary Backauskas,M,SBD,MR-V,93,Raw,2000,,PA,90.3,207.5,-227.5,227.5,227.5,130,137.5,-142.5,137.5,245,-272.5,-272.5,245,610
3,Luke Brinkman,M,SBD,MR-V,93,Raw,1999,,WI,89.6,195,205,212.5,212.5,115,120,125,125,235,245,255,255,592.5
4,Bryce Kasper,M,SBD,MR-V,93,Raw,2000,Elk Mound High School,WI,90,197.5,200,207.5,207.5,120,127.5,132.5,132.5,245,-252.5,-257.5,245,585
5,Brandon Haag,M,SBD,MR-V,93,Raw,1999,,WI,86,-185,190,195,195,105,110,115,115,257.5,267.5,272.5,272.5,582.5
6,Jaden Rasmussen,M,SBD,MR-V,93,Raw,2000,,WY,90.6,197.5,-205,-205,197.5,142.5,147.5,150,150,227.5,230,232.5,232.5,580
7,Brian Jackson,M,SBD,MR-V,93,Raw,2000,Lake Cormorant High School,MS,88.6,205,-210,-210,205,117.5,122.5,127.5,127.5,210,217.5,230,230,562.5
8,Baxter Self,M,SBD,MR-V,93,Raw,2000,,KS,92.1,185,195,-200,195,137.5,145,150,150,185,195,205,205,550
9,Drake Schafer,M,SBD,MR-V,93,Raw,1999,,SD,91.6,187.5,197.5,-205,197.5,115,120,-125,120,207.5,217.5,-227.5,217.5,535
10,Colton Gruse,M,SBD,MR-V,93,Raw,2000,,WI,88.5,190,200,-215,200,105,112.5,-122.5,112.5,200,212.5,-220,212.5,525
11,Julio Duran,M,SBD,MR-V,83,Raw,2000,Glen Mills Schools,PA,83,147.5,165,190,190,85,97.5,102.5,102.5,175,205,227.5,227.5,520
12,Alex Prestholt,M,SBD,MR-V,93,Raw,1999,,IA,92.7,172.5,-185,185,185,110,-115,-115,110,205,222.5,-232.5,222.5,517.5
13,Caleb Farris,M,SBD,MR-V,93,Raw,1999,,TN,91.1,177.5,192.5,-200,192.5,100,-107.5,-107.5,100,192.5,205,222.5,222.5,515
14,Luke Miller #6,M,SBD,MR-V,93,Raw,2000,,OH,87,170,182.5,-197.5,182.5,100,105,110,110,200,212.5,220,220,512.5
15,Joshua Schwartz #1,M,SBD,MR-V,93,Raw,2001,Saint John's High School,MA,92.7,150,160,165,165,110,117.5,-120,117.5,205,220,227.5,227.5,510
16,Steven Agora,M,SBD,MR-V,93,Raw,2000,Saint John's High School,MA,88,152.5,162.5,170,170,120,125,130,130,185,-195,200,200,500
17,Marcus Van Domelen,M,SBD,MR-V,93,Raw,1999,,WI,89.4,170,180,-185,180,110,115,-120,115,177.5,187.5,200,200,495
18,Corde Fitzhugh,M,SBD,MR-V,93,Raw,2000,Glen Mills Schools,PA,91.7,142.5,150,157.5,157.5,105,115,127.5,127.5,185,210,-235,210,495
19,Cole Hummel,M,SBD,MR-V,93,Raw,2001,Ionia High School,MI,91,-155,-155,155,155,112.5,117.5,127.5,127.5,-192.5,192.5,210,210,492.5
20,Jack Heynen,M,SBD,MR-V,93,Raw,2001,Ridgeview,IL,92,170,182.5,-187.5,182.5,92.5,95,100,100,192.5,205,-210,205,487.5
21,Cameron Green,M,SBD,MR-V,93,Raw,2000,Ridgeview,IL,89.6,162.5,170,-172.5,170,95,97.5,-100,97.5,192.5,210,215,215,482.5
22,Elijah Prill,M,SBD,MR-V,93,Raw,2000,,WI,87.6,-165,165,182.5,182.5,87.5,-92.5,-92.5,87.5,-197.5,205,-215,205,475
23,Erik Escalera,M,SBD,MR-V,93,Raw,2001,,WI,91.4,140,-150,155,155,92.5,97.5,105,105,192.5,200,215,215,475
24,Hunter Bourque,M,SBD,MR-V,93,Raw,1999,Abbeville,LA,92,152.5,162.5,-175,162.5,87.5,95,100,100,177.5,195,205,205,467.5
25,Travis Johnson,M,SBD,MR-V,93,Raw,2000,Mauston High School,WI,88.7,145,-157.5,-157.5,145,80,85,87.5,87.5,-227.5,227.5,-245,227.5,460
26,Sean Lemkuil,M,SBD,MR-V,93,Raw,2000,,WI,90,165,170,175,175,100,102.5,105,105,170,172.5,175,175,455
27,Seth Pecha,M,SBD,MR-V,93,Raw,2000,,WI,90.9,142.5,157.5,-162.5,157.5,90,92.5,95,95,-165,165,195,195,447.5
DQ,Demareio Hester,M,SBD,MR-V,93,Raw,2000,,SD,89.9,185,190,200,200,135,-142.5,-142.5,135,-227.5,,,,
DQ,Alex Soto #3,M,SBD,MR-V,93,Raw,2000,,WI,90.6,-182.5,-187.5,-187.5,,97.5,105,-107.5,105,,,,,
1,Gabriel Overton,M,SBD,MR-V,105,Raw,1999,,OH,102.5,250,267.5,-277.5,267.5,167.5,177.5,185,185,250,262.5,265,265,717.5
2,Davis Creach,M,SBD,MR-V,105,Raw,2000,,PA,102.3,227.5,237.5,-245,237.5,157.5,167.5,-170.5,167.5,-227.5,227.5,240,240,645
3,Christian Stenberg,M,SBD,MR-V,105,Raw,2000,,WI,102.8,225,-235,-235,225,155,165,170,170,215,230,240,240,635
4,Kayleb Bastien,M,SBD,MR-V,105,Raw,2002,Ionia High School,MI,96.9,215,232.5,240,240,127.5,142.5,147.5,147.5,235.5,245,-252.5,245,632.5
5,Brett Gildenzoph,M,SBD,MR-V,105,Raw,1999,,WI,103.4,225,235,-240,235,-137.5,137.5,-150,137.5,227.5,242.5,-252.5,242.5,615
6,Darren KeoKanlaya,M,SBD,MR-V,105,Raw,2000,Lake Cormorant High School,MS,99.1,-210,215,227.5,227.5,115,122.5,-127.5,122.5,220,235,-237.5,235,585
7,Joseph Chau,M,SBD,MR-V,105,Raw,1999,,MA,100.1,217.5,227.5,232.5,232.5,115,122.5,-125,122.5,-215,215,227.5,227.5,582.5
8,Alfredo Valdez,M,SBD,MR-V,105,Raw,1999,Waterford Union High School,WI,99.4,190,200,-210,200,110,115,-120,115,230,245,252.5,252.5,567.5
9,Brandon Thurlby,M,SBD,MR-V,105,Raw,2000,Ionia High School,MI,104.5,197.5,205,-212.5,205,125,135,-145,135,205,-217.5,225,225,565
10,Joseph Statz,M,SBD,MR-V,105,Raw,2001,,WI,94,200,215,220,220,105,117.5,-120,117.5,205,220,-222.5,220,557.5
11,Nathan Bohman,M,SBD,MR-V,105,Raw,2000,,WI,97.8,-170,175,185,185,137.5,147.5,-152.5,147.5,200,220,-227.5,220,552.5
12,Caleb Cihlar,M,SBD,MR-V,105,Raw,2000,,WI,100.2,200,210,-222.5,210,110,120,-125,120,200,222.5,-232.5,222.5,552.5
13,Victor Statz,M,SBD,MR-V,105,Raw,2000,,WI,95.2,165,185,195,195,105,120,127.5,127.5,200,222.5,-225,222.5,545
14,Juan Duncan,M,SBD,MR-V,105,Raw,2000,Glen Mills Schools,PA,99.5,140,155,-175,155,-115,127.5,-132.5,127.5,217.5,250,-272.5,250,532.5
15,Wyatt Carper,M,SBD,MR-V,105,Raw,2000,,WI,100.4,207.5,212.5,-227.5,212.5,110,112.5,-117.5,112.5,190,205,-215,205,530
16,Aaron Gotham,M,SBD,MR-V,105,Raw,2001,,WI,104.1,200,-210,215,215,105,-107.5,-107.5,105,200,207.5,-210,207.5,527.5
17,Nazario Coleman,M,SBD,MR-V,105,Raw,2000,Glen Mills Schools,PA,102,160,180,195,195,105,115,122.5,122.5,187.5,205,-235,205,522.5
18,Graham Paatela,M,SBD,MR-V,105,Raw,1999,,MN,95.5,175,187.5,195,195,110,115,-120,115,190,205,-220,205,515
19,Quinton Morse,M,SBD,MR-V,105,Raw,2000,Birch Run High School,MI,98,182.5,195,-205,195,97.5,105,110,110,185,195,205,205,510
20,Benjamin Zahn,M,SBD,MR-V,105,Raw,2000,,WI,93.6,160,170,177.5,177.5,100,102.5,105,105,200,215,222.5,222.5,505
21,Jake Kerr,M,SBD,MR-V,105,Raw,2000,Ionia High School,MI,102.8,167.5,177.5,185,185,95,102.5,107.5,107.5,202.5,212.5,-220,212.5,505
22,Jeffrey De Leon,M,SBD,MR-V,105,Raw,2000,Carrizo Springs High School,TX,103.8,185,190,-200,190,100,-105,-105,100,215,-227.5,-227.5,215,505
23,Jaxonf Starr,M,SBD,MR-V,93,Raw,1999,,SD,93,170,175,-185,175,95,-97.5,-100,95,200,215,-227.5,215,485
24,Trenton Kruger,M,SBD,MR-V,105,Raw,2000,Kasson-Mantorville High School,MN,97.8,175,185,195,195,85,-90,-95,85,192.5,205,-225,205,485
25,Jack Dietzen,M,SBD,MR-V,105,Raw,2000,,WI,100.7,165,175,185,185,85,92.5,97.5,97.5,182.5,200,-227.5,200,482.5
1,Reece Heyerdahl,M,SBD,MR-V,120,Raw,2001,Neenah High School,WI,113.5,227.5,237.5,-242.5,237.5,135,142.5,-147.5,142.5,250,270,282.5,282.5,662.5
2,Carter Welch,M,SBD,MR-V,120,Raw,2000,,WI,118.5,237.5,242.5,-245,242.5,145,150,-152.5,150,242.5,247.5,252.5,252.5,645
3,Luc Leszczynski,M,SBD,MR-V,120,Raw,2000,,WI,108.5,195,212.5,227.5,227.5,135,147.5,155,155,227.5,247.5,260,260,642.5
4,Jordon Prondzinski,M,SBD,MR-V,120,Raw,2000,,WI,119.1,237.5,252.5,-257.5,252.5,122.5,127.5,-130,127.5,245,255,-267.5,255,635
5,Kenneth Smith #1,M,SBD,MR-V,120,Raw,2000,,MN,115.2,220,235,242.5,242.5,137.5,142.5,-150,142.5,220,232.5,242.5,242.5,627.5
6,Zachary Wagner #2,M,SBD,MR-V,120,Raw,2000,,WI,119.6,205,215,217.5,217.5,132.5,140,-142.5,140,260,265,-267.5,265,622.5
7,Noah Stem,M,SBD,MR-V,120,Raw,1999,Lake Cormorant High School,MS,119.5,227.5,-237.5,242.5,242.5,142.5,-150,-150,142.5,227.5,-240,-245,227.5,612.5
8,Michael Bidwell,M,SBD,MR-V,120,Raw,2001,,WI,112.8,182.5,200,-210,200,102.5,110,112.5,112.5,247.5,270,275,275,587.5
9,Elijah Froemming,M,SBD,MR-V,120,Raw,2000,,WI,115,192.5,202.5,210,210,115,122.5,130,130,232.5,247.5,-250,247.5,587.5
10,Jack Bronner,M,SBD,MR-V,120,Raw,2000,Birch Run High School,MI,111.5,215,227.5,-240,227.5,115,122.5,130,130,215,227.5,-245,227.5,585
11,Benjamin Howard,M,SBD,MR-V,120,Raw,1999,,WA,117.6,212.5,220,227.5,227.5,130,140,-147.5,140,217.5,-230,-232.5,217.5,585
12,Andrew Tompkins,M,SBD,MR-V,120,Raw,2000,,WI,112.8,200,215,-227.5,215,105,112.5,117.5,117.5,210,225,235,235,567.5
13,Thomas Whitfield,M,SBD,MR-V,120,Raw,2001,Birch Run High School,MI,106.2,-182.5,195,207.5,207.5,110,117.5,-120,117.5,210,225,237.5,237.5,562.5
14,Anthony Withrow,M,SBD,MR-V,120,Raw,2002,Glen Mills Schools,PA,119.2,140,155,-175,155,122.5,135,145,145,202.5,232.5,-250,232.5,532.5
15,Aaron Carpenter,M,SBD,MR-V,120,Raw,1999,,WI,120,187.5,-195,-195,187.5,122.5,132.5,-140,132.5,187.5,195,202.5,202.5,522.5
16,Austin Nichifor,M,SBD,MR-V,120,Raw,2001,,SD,118.3,-195,-195,195,195,-110,-110,110,110,200,-220,-220,200,505
17,Brian White #2,M,SBD,MR-V,120,Raw,2000,,PA,112.8,142.5,152.5,165,165,102.5,112.5,115,115,175,190,212.5,212.5,492.5
1,Jaden Burgess-Eisch,M,SBD,MR-V,120+,Raw,1999,,WI,131.8,257.5,280,300,300,170,180,187.5,187.5,255,-280,-285,255,742.5
2,Logan Cleary,M,SBD,MR-V,120+,Raw,2002,,WI,153.9,255,265,277.5,277.5,165,175,182.5,182.5,255,265,282.5,282.5,742.5
3,Houston Wentzel,M,SBD,MR-V,120+,Raw,1999,,SD,135.5,252.5,272.5,280,280,132.5,140,147.5,147.5,227.5,247.5,-255,247.5,675
4,Trevor Marquardt,M,SBD,MR-V,120+,Raw,2000,Neenah High School,WI,150.7,227.5,242.5,255,255,117.5,125,130,130,217.5,237.5,252.5,252.5,637.5
5,Mason Amato,M,SBD,MR-V,120+,Raw,2001,,SD,166.2,227.5,-237.5,242.5,242.5,-135,135,-137.5,135,-240,240,260,260,637.5
6,Jerome Chemelli,M,SBD,MR-V,120+,Raw,2000,,PA,125.9,215,227.5,237.5,237.5,125,137.5,145,145,227.5,252.5,-275,252.5,635
7,Brandon Haag,M,SBD,MR-V,120+,Raw,2000,,WI,148.5,230,245,255,255,130,135,140,140,230,235,-240,235,630
8,Randy Mcdonald,M,SBD,MR-V,120+,Raw,2001,Lake Cormorant High School,MS,126.1,192.5,207.5,222.5,222.5,-127.5,135,142.5,142.5,225,240,-252.5,240,605
9,Kevin Karras,M,SBD,MR-V,120+,Raw,1999,,WI,141.8,192.5,207.5,215,215,127.5,132.5,-137.5,132.5,205,227.5,-232.5,227.5,575
10,Timothy Rothbauer,M,SBD,MR-V,120+,Raw,2000,,WI,140.7,190,205,212.5,212.5,102.5,112.5,-117.5,112.5,202.5,212.5,-217.5,212.5,537.5
11,Jackie Roberts,M,SBD,MR-V,120+,Raw,2003,Glen Mills Schools,PA,142.2,175,197.5,210,210,92.5,102.5,115,115,175,197.5,207.5,207.5,532.5
12,Luke Seljeseth,M,SBD,MR-V,120+,Raw,2001,Kasson-Mantorville High School,MN,143.3,162.5,182.5,192.5,192.5,95,105,112.5,112.5,220,227.5,-235,227.5,532.5
13,Kade Bratzel,M,SBD,MR-V,120+,Raw,2000,,SD,150.5,170,180,-190,180,117.5,122.5,-130,122.5,215,-230,-230,215,517.5
14,Jon Sena,M,SBD,MR-V,120+,Raw,1999,Ionia High School,MI,123.9,165,170,182.5,182.5,100,105,107.5,107.5,185,207.5,-215,207.5,497.5
15,Brandon Gilbertson,M,SBD,MR-V,120+,Raw,2000,Elk Mound High School,WI,125.7,165,167.5,172.5,172.5,87.5,90,-92.5,90,210,215,-220,215,477.5
